assignment_5/Host_Server Code/Hardware Modules/lfsrTest.vcd
$date
	Fri Mar 04 16:46:54 2016
$end
$version
	Icarus Verilog
$end
$timescale
	1s
$end
$scope module LFSR_16bitTestbench $end
$scope module lfsrTest $end
$var wire 1 ! xnor_out $end
$var wire 1 " reset $end
$var wire 1 # clk $end
$var wire 16 $ Q [15:0] $end
$upscope $end
$upscope $end
$enddefinitions $end
#0
$dumpvars
bx $
x#
x"
x!
$end
#10
0"
0#
#20
1!
b0 $
1"
1#
#30
0"
0#
#40
b1 $
1#
#50
0#
#60
b11 $
1#
#70
0#
#80
b111 $
1#
#90
0#
#100
0!
b1111 $
1#
#110
0#
#120
b11110 $
1#
#130
0#
#140
b111100 $
1#
#150
0#
#160
b1111000 $
1#
#170
0#
#180
1!
b11110000 $
1#
#190
0#
#200
b111100001 $
1#
#210
0#
#220
b1111000011 $
1#
#230
0#
#240
b11110000111 $
1#
#250
0#
#260
0!
b111100001111 $
1#
#270
0#
#280
1!
b1111000011110 $
1#
#290
0#
#300
b11110000111101 $
1#
#310
0#
#320
0!
b111100001111011 $
1#
#330
0#
#340
b1111000011110110 $
1#
#350
0#
#360
b1110000111101100 $
1#
#370
0#
#380
b1100001111011000 $
1#
#390
0#
#400
b1000011110110000 $
1#
#410
0#
#420
1!
b111101100000 $
1#
#430
0#
#440
0!
b1111011000001 $
1#
#450
0#
#460
b11110110000010 $
1#
#470
0#
#480
1!
b111101100000100 $
1#
#490
0#
#500
b1111011000001001 $
1#
#510
0#
#520
b1110110000010011 $
1#
#530
0#
#540
0!
b1101100000100111 $
1#
#550
0#
#560
b1011000001001110 $
1#
#570
0#
#580
1!
b110000010011100 $
1#
#590
0#
#600
0!
b1100000100111001 $
1#
#610
0#
#620
b1000001001110010 $
1#
#630
0#
#640
1!
b10011100100 $
1#
#650
0#
#660
0!
b100111001001 $
1#
#670
0#
#680
b1001110010010 $
1#
#690
0#
#700
1!
b10011100100100 $
1#
#710
0#
#720
b100111001001001 $
1#
#730
0#
#740
b1001110010010011 $
1#
#750
0#
#760
0!
b11100100100111 $
1#
#770
0#
#780
b111001001001110 $
1#
#790
0#
#800
b1110010010011100 $
1#
#810
0#
#820
b1100100100111000 $
1#
#830
0#
#840
1!
b1001001001110000 $
1#
#850
0#
#860
b10010011100001 $
1#
#870
0#
#880
0!
b100100111000011 $
1#
#890
0#
#900
1!
b1001001110000110 $
1#
#910
0#
#920
0!
b10011100001101 $
1#
#930
0#
#940
1!
b100111000011010 $
1#
#950
0#
#960
b1001110000110101 $
1#
#970
0#
#980
b11100001101011 $
1#
#990
0#
#1000
b111000011010111 $
1#
#1010
0#
#1020
0!
b1110000110101111 $
1#
#1030
0#
#1040
b1100001101011110 $
1#
#1050
0#
#1060
1!
b1000011010111100 $
1#
#1070
0#
#1080
0!
b110101111001 $
1#
#1090
0#
#1100
b1101011110010 $
1#
#1110
0#
#1120
b11010111100100 $
1#
#1130
0#
#1140
1!
b110101111001000 $
1#
#1150
0#
#1160
0!
b1101011110010001 $
1#
#1170
0#
#1180
b1010111100100010 $
1#
#1190
0#
#1200
1!
b101111001000100 $
1#
#1210
0#
#1220
0!
b1011110010001001 $
1#
#1230
0#
#1240
1!
b111100100010010 $
1#
#1250
0#
#1260
0!
b1111001000100101 $
1#
#1270
0#
#1280
b1110010001001010 $
1#
#1290
0#
#1300
1!
b1100100010010100 $
1#
#1310
0#
#1320
0!
b1001000100101001 $
1#
#1330
0#
#1340
1!
b10001001010010 $
1#
#1350
0#
#1360
0!
b100010010100101 $
1#
#1370
0#
#1380
1!
b1000100101001010 $
1#
#1390
0#
#1400
0!
b1001010010101 $
1#
#1410
0#
#1420
b10010100101010 $
1#
#1430
0#
#1440
b100101001010100 $
1#
#1450
0#
#1460
b1001010010101000 $
1#
#1470
0#
#1480
1!
b10100101010000 $
1#
#1490
0#
#1500
b101001010100001 $
1#
#1510
0#
#1520
0!
b1010010101000011 $
1#
#1530
0#
#1540
b100101010000110 $
1#
#1550
0#
#1560
b1001010100001100 $
1#
#1570
0#
#1580
b10101000011000 $
1#
#1590
0#
#1600
1!
b101010000110000 $
1#
#1610
0#
#1620
0!
b1010100001100001 $
1#
#1630
0#
#1640
1!
b101000011000010 $
1#
#1650
0#
#1660
0!
b1010000110000101 $
1#
#1670
0#
#1680
1!
b100001100001010 $
1#
#1690
0#
#1700
0!
b1000011000010101 $
1#
#1710
0#
#1720
b110000101010 $
1#
#1730
0#
#1740
b1100001010100 $
1#
#1750
0#
#1760
1!
b11000010101000 $
1#
#1770
0#
#1780
0!
b110000101010001 $
1#
#1790
0#
#1800
1!
b1100001010100010 $
1#
#1810
0#
#1820
0!
b1000010101000101 $
1#
#1830
0#
#1840
b101010001010 $
1#
#1850
0#
#1860
b1010100010100 $
1#
#1870
0#
#1880
b10101000101000 $
1#
#1890
0#
#1900
1!
b101010001010000 $
1#
#1910
0#
#1920
0!
b1010100010100001 $
1#
#1930
0#
#1940
1!
b101000101000010 $
1#
#1950
0#
#1960
0!
b1010001010000101 $
1#
#1970
0#
#1980
1!
b100010100001010 $
1#
#1990
0#
#2000
0!
b1000101000010101 $
1#
#2010
0#
#2020
1!
b1010000101010 $
1#
#2030
0#
#2040
b10100001010101 $
1#
#2050
0#
#2060
0!
b101000010101011 $
1#
#2070
0#
#2080
b1010000101010110 $
1#
#2090
0#
#2100
1!
b100001010101100 $
1#
#2110
0#
#2120
b1000010101011001 $
1#
#2130
0#
#2140
b101010110011 $
1#
#2150
0#
#2160
0!
b1010101100111 $
1#
#2170
0#
#2180
b10101011001110 $
1#
#2190
0#
#2200
b101010110011100 $
1#
#2210
0#
#2220
1!
b1010101100111000 $
1#
#2230
0#
#2240
b101011001110001 $
1#
#2250
0#
#2260
0!
b1010110011100011 $
1#
#2270
0#
#2280
1!
b101100111000110 $
1#
#2290
0#
#2300
0!
b1011001110001101 $
1#
#2310
0#
#2320
1!
b110011100011010 $
1#
#2330
0#
#2340
b1100111000110101 $
1#
#2350
0#
#2360
0!
b1001110001101011 $
1#
#2370
0#
#2380
b11100011010110 $
1#
#2390
0#
#2400
b111000110101100 $
1#
#2410
0#
#2420
b1110001101011000 $
1#
#2430
0#
#2440
1!
b1100011010110000 $
1#
#2450
0#
#2460
0!
b1000110101100001 $
1#
#2470
0#
#2480
b1101011000010 $
1#
#2490
0#
#2500
b11010110000100 $
1#
#2510
0#
#2520
1!
b110101100001000 $
1#
#2530
0#
#2540
0!
b1101011000010001 $
1#
#2550
0#
#2560
b1010110000100010 $
1#
#2570
0#
#2580
1!
b101100001000100 $
1#
#2590
0#
#2600
0!
b1011000010001001 $
1#
#2610
0#
#2620
b110000100010010 $
1#
#2630
0#
#2640
1!
b1100001000100100 $
1#
#2650
0#
#2660
b1000010001001001 $
1#
#2670
0#
#2680
b100010010011 $
1#
#2690
0#
#2700
0!
b1000100100111 $
1#
#2710
0#
#2720
b10001001001110 $
1#
#2730
0#
#2740
1!
b100010010011100 $
1#
#2750
0#
#2760
b1000100100111001 $
1#
#2770
0#
#2780
0!
b1001001110011 $
1#
#2790
0#
#2800
1!
b10010011100110 $
1#
#2810
0#
#2820
b100100111001101 $
1#
#2830
0#
#2840
0!
b1001001110011011 $
1#
#2850
0#
#2860
1!
b10011100110110 $
1#
#2870
0#
#2880
b100111001101101 $
1#
#2890
0#
#2900
0!
b1001110011011011 $
1#
#2910
0#
#2920
b11100110110110 $
1#
#2930
0#
#2940
b111001101101100 $
1#
#2950
0#
#2960
b1110011011011000 $
1#
#2970
0#
#2980
1!
b1100110110110000 $
1#
#2990
0#
#3000
b1001101101100001 $
1#
#3010
0#
#3020
0!
b11011011000011 $
1#
#3030
0#
#3040
b110110110000110 $
1#
#3050
0#
#3060
1!
b1101101100001100 $
1#
#3070
0#
#3080
0!
b1011011000011001 $
1#
#3090
0#
#3100
b110110000110010 $
1#
#3110
0#
#3120
b1101100001100100 $
1#
#3130
0#
#3140
b1011000011001000 $
1#
#3150
0#
#3160
b110000110010000 $
1#
#3170
0#
#3180
1!
b1100001100100000 $
1#
#3190
0#
#3200
0!
b1000011001000001 $
1#
#3210
0#
#3220
1!
b110010000010 $
1#
#3230
0#
#3240
0!
b1100100000101 $
1#
#3250
0#
#3260
1!
b11001000001010 $
1#
#3270
0#
#3280
0!
b110010000010101 $
1#
#3290
0#
#3300
b1100100000101010 $
1#
#3310
0#
#3320
1!
b1001000001010100 $
1#
#3330
0#
#3340
0!
b10000010101001 $
1#
#3350
0#
#3360
b100000101010010 $
1#
#3370
0#
#3380
b1000001010100100 $
1#
#3390
0#
#3400
b10101001000 $
1#
#3410
0#
#3420
1!
b101010010000 $
1#
#3430
0#
#3440
0!
b1010100100001 $
1#
#3450
0#
#3460
1!
b10101001000010 $
1#
#3470
0#
#3480
b101010010000101 $
1#
#3490
0#
#3500
b1010100100001011 $
1#
#3510
0#
#3520
b101001000010111 $
1#
#3530
0#
#3540
b1010010000101111 $
1#
#3550
0#
#3560
b100100001011111 $
1#
#3570
0#
#3580
0!
b1001000010111111 $
1#
#3590
0#
#3600
b10000101111110 $
1#
#3610
0#
#3620
1!
b100001011111100 $
1#
#3630
0#
#3640
b1000010111111001 $
1#
#3650
0#
#3660
b101111110011 $
1#
#3670
0#
#3680
0!
b1011111100111 $
1#
#3690
0#
#3700
b10111111001110 $
1#
#3710
0#
#3720
b101111110011100 $
1#
#3730
0#
#3740
b1011111100111000 $
1#
#3750
0#
#3760
1!
b111111001110000 $
1#
#3770
0#
#3780
0!
b1111110011100001 $
1#
#3790
0#
#3800
b1111100111000010 $
1#
#3810
0#
#3820
b1111001110000100 $
1#
#3830
0#
#3840
b1110011100001000 $
1#
#3850
0#
#3860
1!
b1100111000010000 $
1#
#3870
0#
#3880
b1001110000100001 $
1#
#3890
0#
#3900
0!
b11100001000011 $
1#
#3910
0#
#3920
1!
b111000010000110 $
1#
#3930
0#
#3940
0!
b1110000100001101 $
1#
#3950
0#
#3960
b1100001000011010 $
1#
#3970
0#
#3980
b1000010000110100 $
1#
#3990
0#
#4000
b100001101000 $
1#
#4010
0#
#4020
b1000011010000 $
1#
#4030
0#
#4040
1!
b10000110100000 $
1#
#4050
0#
#4060
0!
b100001101000001 $
1#
#4070
0#
#4080
b1000011010000010 $
1#
#4090
0#
#4100
1!
b110100000100 $
1#
#4110
0#
#4120
b1101000001001 $
1#
#4130
0#
#4140
0!
b11010000010011 $
1#
#4150
0#
#4160
b110100000100110 $
1#
#4170
0#
#4180
1!
b1101000001001100 $
1#
#4190
0#
#4200
b1010000010011001 $
1#
#4210
0#
#4220
0!
b100000100110011 $
1#
#4230
0#
#4240
b1000001001100110 $
1#
#4250
0#
#4260
b10011001100 $
1#
#4270
0#
#4280
b100110011000 $
1#
#4290
0#
#4300
b1001100110000 $
1#
#4310
0#
#4320
1!
b10011001100000 $
1#
#4330
0#
#4340
0!
b100110011000001 $
1#
#4350
0#
#4360
1!
b1001100110000010 $
1#
#4370
0#
#4380
0!
b11001100000101 $
1#
#4390
0#
#4400
1!
b110011000001010 $
1#
#4410
0#
#4420
b1100110000010101 $
1#
#4430
0#
#4440
0!
b1001100000101011 $
1#
#4450
0#
#4460
b11000001010110 $
1#
#4470
0#
#4480
1!
b110000010101100 $
1#
#4490
0#
#4500
0!
b1100000101011001 $
1#
#4510
0#
#4520
b1000001010110010 $
1#
#4530
0#
#4540
1!
b10101100100 $
1#
#4550
0#
#4560
0!
b101011001001 $
1#
#4570
0#
#4580
b1010110010010 $
1#
#4590
0#
#4600
1!
b10101100100100 $
1#
#4610
0#
#4620
0!
b101011001001001 $
1#
#4630
0#
#4640
b1010110010010010 $
1#
#4650
0#
#4660
1!
b101100100100100 $
1#
#4670
0#
#4680
0!
b1011001001001001 $
1#
#4690
0#
#4700
b110010010010010 $
1#
#4710
0#
#4720
1!
b1100100100100100 $
1#
#4730
0#
#4740
0!
b1001001001001001 $
1#
#4750
0#
#4760
1!
b10010010010010 $
1#
#4770
0#
#4780
0!
b100100100100101 $
1#
#4790
0#
#4800
b1001001001001010 $
1#
#4810
0#
#4820
1!
b10010010010100 $
1#
#4830
0#
#4840
b100100100101001 $
1#
#4850
0#
#4860
b1001001001010011 $
1#
#4870
0#
#4880
b10010010100111 $
1#
#4890
0#
#4900
b100100101001111 $
1#
#4910
0#
#4920
0!
b1001001010011111 $
1#
#4930
0#
#4940
b10010100111110 $
1#
#4950
0#
#4960
1!
b100101001111100 $
1#
#4970
0#
#4980
0!
b1001010011111001 $
1#
#4990
0#
#5000
1!
b10100111110010 $
1#
#5010
0#
#5020
b101001111100101 $
1#
#5030
0#
#5040
b1010011111001011 $
1#
#5050
0#
#5060
0!
b100111110010111 $
1#
#5070
0#
#5080
b1001111100101110 $
1#
#5090
0#
#5100
1!
b11111001011100 $
1#
#5110
0#
#5120
0!
b111110010111001 $
1#
#5130
0#
#5140
b1111100101110010 $
1#
#5150
0#
#5160
b1111001011100100 $
1#
#5170
0#
#5180
b1110010111001000 $
1#
#5190
0#
#5200
1!
b1100101110010000 $
1#
#5210
0#
#5220
b1001011100100001 $
1#
#5230
0#
#5240
b10111001000011 $
1#
#5250
0#
#5260
b101110010000111 $
1#
#5270
0#
#5280
0!
b1011100100001111 $
1#
#5290
0#
#5300
b111001000011110 $
1#
#5310
0#
#5320
b1110010000111100 $
1#
#5330
0#
#5340
b1100100001111000 $
1#
#5350
0#
#5360
1!
b1001000011110000 $
1#
#5370
0#
#5380
b10000111100001 $
1#
#5390
0#
#5400
0!
b100001111000011 $
1#
#5410
0#
#5420
b1000011110000110 $
1#
#5430
0#
#5440
b111100001100 $
1#
#5450
0#
#5460
1!
b1111000011000 $
1#
#5470
0#
#5480
0!
b11110000110001 $
1#
#5490
0#
#5500
1!
b111100001100010 $
1#
#5510
0#
#5520
0!
b1111000011000101 $
1#
#5530
0#
#5540
b1110000110001010 $
1#
#5550
0#
#5560
1!
b1100001100010100 $
1#
#5570
0#
#5580
b1000011000101001 $
1#
#5590
0#
#5600
b110001010011 $
1#
#5610
0#
#5620
0!
b1100010100111 $
1#
#5630
0#
#5640
1!
b11000101001110 $
1#
#5650
0#
#5660
b110001010011101 $
1#
#5670
0#
#5680
0!
b1100010100111011 $
1#
#5690
0#
#5700
b1000101001110110 $
1#
#5710
0#
#5720
1!
b1010011101100 $
1#
#5730
0#
#5740
0!
b10100111011001 $
1#
#5750
0#
#5760
1!
b101001110110010 $
1#
#5770
0#
#5780
0!
b1010011101100101 $
1#
#5790
0#
#5800
1!
b100111011001010 $
1#
#5810
0#
#5820
b1001110110010101 $
1#
#5830
0#
#5840
b11101100101011 $
1#
#5850
0#
#5860
b111011001010111 $
1#
#5870
0#
#5880
0!
b1110110010101111 $
1#
#5890
0#
#5900
1!
b1101100101011110 $
1#
#5910
0#
#5920
0!
b1011001010111101 $
1#
#5930
0#
#5940
1!
b110010101111010 $
1#
#5950
0#
#5960
b1100101011110101 $
1#
#5970
0#
#5980
0!
b1001010111101011 $
1#
#5990
0#
#6000
1!
b10101111010110 $
1#
#6010
0#
#6020
0!
b101011110101101 $
1#
#6030
0#
#6040
1!
b1010111101011010 $
1#
#6050
0#
#6060
b101111010110101 $
1#
#6070
0#
#6080
0!
b1011110101101011 $
1#
#6090
0#
#6100
1!
b111101011010110 $
1#
#6110
0#
#6120
b1111010110101101 $
1#
#6130
0#
#6140
0!
b1110101101011011 $
1#
#6150
0#
#6160
b1101011010110110 $
1#
#6170
0#
#6180
1!
b1010110101101100 $
1#
#6190
0#
#6200
0!
b101101011011001 $
1#
#6210
0#
#6220
1!
b1011010110110010 $
1#
#6230
0#
#6240
0!
b110101101100101 $
1#
#6250
0#
#6260
1!
b1101011011001010 $
1#
#6270
0#
#6280
0!
b1010110110010101 $
1#
#6290
0#
#6300
b101101100101010 $
1#
#6310
0#
#6320
1!
b1011011001010100 $
1#
#6330
0#
#6340
b110110010101001 $
1#
#6350
0#
#6360
0!
b1101100101010011 $
1#
#6370
0#
#6380
1!
b1011001010100110 $
1#
#6390
0#
#6400
b110010101001101 $
1#
#6410
0#
#6420
0!
b1100101010011011 $
1#
#6430
0#
#6440
1!
b1001010100110110 $
1#
#6450
0#
#6460
0!
b10101001101101 $
1#
#6470
0#
#6480
b101010011011010 $
1#
#6490
0#
#6500
b1010100110110100 $
1#
#6510
0#
#6520
b101001101101000 $
1#
#6530
0#
#6540
b1010011011010000 $
1#
#6550
0#
#6560
b100110110100000 $
1#
#6570
0#
#6580
1!
b1001101101000000 $
1#
#6590
0#
#6600
0!
b11011010000001 $
1#
#6610
0#
#6620
b110110100000010 $
1#
#6630
0#
#6640
b1101101000000100 $
1#
#6650
0#
#6660
b1011010000001000 $
1#
#6670
0#
#6680
b110100000010000 $
1#
#6690
0#
#6700
b1101000000100000 $
1#
#6710
0#
#6720
b1010000001000000 $
1#
#6730
0#
#6740
b100000010000000 $
1#
#6750
0#
#6760
b1000000100000000 $
1#
#6770
0#
#6780
1!
b1000000000 $
1#
#6790
0#
#6800
b10000000001 $
1#
#6810
0#
#6820
b100000000011 $
1#
#6830
0#
#6840
0!
b1000000000111 $
1#
#6850
0#
#6860
b10000000001110 $
1#
#6870
0#
#6880
1!
b100000000011100 $
1#
#6890
0#
#6900
b1000000000111001 $
1#
#6910
0#
#6920
b1110011 $
1#
#6930
0#
#6940
b11100111 $
1#
#6950
0#
#6960
0!
b111001111 $
1#
#6970
0#
#6980
b1110011110 $
1#
#6990
0#
#7000
b11100111100 $
1#
#7010
0#
#7020
b111001111000 $
1#
#7030
0#
#7040
b1110011110000 $
1#
#7050
0#
#7060
b11100111100000 $
1#
#7070
0#
#7080
1!
b111001111000000 $
1#
#7090
0#
#7100
b1110011110000001 $
1#
#7110
0#
#7120
b1100111100000011 $
1#
#7130
0#
#7140
b1001111000000111 $
1#
#7150
0#
#7160
b11110000001111 $
1#
#7170
0#
#7180
0!
b111100000011111 $
1#
#7190
0#
#7200
1!
b1111000000111110 $
1#
#7210
0#
#7220
0!
b1110000001111101 $
1#
#7230
0#
#7240
b1100000011111010 $
1#
#7250
0#
#7260
b1000000111110100 $
1#
#7270
0#
#7280
b1111101000 $
1#
#7290
0#
#7300
1!
b11111010000 $
1#
#7310
0#
#7320
b111110100001 $
1#
#7330
0#
#7340
0!
b1111101000011 $
1#
#7350
0#
#7360
b11111010000110 $
1#
#7370
0#
#7380
b111110100001100 $
1#
#7390
0#
#7400
1!
b1111101000011000 $
1#
#7410
0#
#7420
0!
b1111010000110001 $
1#
#7430
0#
#7440
1!
b1110100001100010 $
1#
#7450
0#
#7460
0!
b1101000011000101 $
1#
#7470
0#
#7480
1!
b1010000110001010 $
1#
#7490
0#
#7500
0!
b100001100010101 $
1#
#7510
0#
#7520
1!
b1000011000101010 $
1#
#7530
0#
#7540
b110001010101 $
1#
#7550
0#
#7560
b1100010101011 $
1#
#7570
0#
#7580
0!
b11000101010111 $
1#
#7590
0#
#7600
1!
b110001010101110 $
1#
#7610
0#
#7620
0!
b1100010101011101 $
1#
#7630
0#
#7640
1!
b1000101010111010 $
1#
#7650
0#
#7660
0!
b1010101110101 $
1#
#7670
0#
#7680
b10101011101010 $
1#
#7690
0#
#7700
1!
b101010111010100 $
1#
#7710
0#
#7720
b1010101110101001 $
1#
#7730
0#
#7740
b101011101010011 $
1#
#7750
0#
#7760
0!
b1010111010100111 $
1#
#7770
0#
#7780
b101110101001110 $
1#
#7790
0#
#7800
b1011101010011100 $
1#
#7810
0#
#7820
b111010100111000 $
1#
#7830
0#
#7840
1!
b1110101001110000 $
1#
#7850
0#
#7860
0!
b1101010011100001 $
1#
#7870
0#
#7880
b1010100111000010 $
1#
#7890
0#
#7900
1!
b101001110000100 $
1#
#7910
0#
#7920
b1010011100001001 $
1#
#7930
0#
#7940
0!
b100111000010011 $
1#
#7950
0#
#7960
1!
b1001110000100110 $
1#
#7970
0#
#7980
b11100001001101 $
1#
#7990
0#
#8000
0!
b111000010011011 $
1#
#8010
0#
#8020
1!
b1110000100110110 $
1#
#8030
0#
#8040
0!
b1100001001101101 $
1#
#8050
0#
#8060
1!
b1000010011011010 $
1#
#8070
0#
#8080
b100110110101 $
1#
#8090
0#
#8100
b1001101101011 $
1#
#8110
0#
#8120
b10011011010111 $
1#
#8130
0#
#8140
b100110110101111 $
1#
#8150
0#
#8160
0!
b1001101101011111 $
1#
#8170
0#
#8180
1!
b11011010111110 $
1#
#8190
0#
#8200
b110110101111101 $
1#
#8210
0#
#8220
b1101101011111011 $
1#
#8230
0#
#8240
b1011010111110111 $
1#
#8250
0#
#8260
b110101111101111 $
1#
#8270
0#
#8280
b1101011111011111 $
1#
#8290
0#
#8300
b1010111110111111 $
1#
#8310
0#
#8320
0!
b101111101111111 $
1#
#8330
0#
#8340
b1011111011111110 $
1#
#8350
0#
#8360
b111110111111100 $
1#
#8370
0#
#8380
1!
b1111101111111000 $
1#
#8390
0#
#8400
0!
b1111011111110001 $
1#
#8410
0#
#8420
1!
b1110111111100010 $
1#
#8430
0#
#8440
0!
b1101111111000101 $
1#
#8450
0#
#8460
b1011111110001010 $
1#
#8470
0#
#8480
1!
b111111100010100 $
1#
#8490
0#
#8500
b1111111000101001 $
1#
#8510
0#
#8520
0!
b1111110001010011 $
1#
#8530
0#
#8540
b1111100010100110 $
1#
#8550
0#
#8560
1!
b1111000101001100 $
1#
#8570
0#
#8580
0!
b1110001010011001 $
1#
#8590
0#
#8600
1!
b1100010100110010 $
1#
#8610
0#
#8620
0!
b1000101001100101 $
1#
#8630
0#
#8640
1!
b1010011001010 $
1#
#8650
0#
#8660
b10100110010101 $
1#
#8670
0#
#8680
0!
b101001100101011 $
1#
#8690
0#
#8700
b1010011001010110 $
1#
#8710
0#
#8720
1!
b100110010101100 $
1#
#8730
0#
#8740
0!
b1001100101011001 $
1#
#8750
0#
#8760
b11001010110010 $
1#
#8770
0#
#8780
b110010101100100 $
1#
#8790
0#
#8800
b1100101011001000 $
1#
#8810
0#
#8820
1!
b1001010110010000 $
1#
#8830
0#
#8840
b10101100100001 $
1#
#8850
0#
#8860
b101011001000011 $
1#
#8870
0#
#8880
0!
b1010110010000111 $
1#
#8890
0#
#8900
b101100100001110 $
1#
#8910
0#
#8920
b1011001000011100 $
1#
#8930
0#
#8940
1!
b110010000111000 $
1#
#8950
0#
#8960
b1100100001110001 $
1#
#8970
0#
#8980
b1001000011100011 $
1#
#8990
0#
#9000
b10000111000111 $
1#
#9010
0#
#9020
b100001110001111 $
1#
#9030
0#
#9040
b1000011100011111 $
1#
#9050
0#
#9060
0!
b111000111111 $
1#
#9070
0#
#9080
1!
b1110001111110 $
1#
#9090
0#
#9100
b11100011111101 $
1#
#9110
0#
#9120
0!
b111000111111011 $
1#
#9130
0#
#9140
1!
b1110001111110110 $
1#
#9150
0#
#9160
0!
b1100011111101101 $
1#
#9170
0#
#9180
1!
b1000111111011010 $
1#
#9190
0#
#9200
0!
b1111110110101 $
1#
#9210
0#
#9220
1!
b11111101101010 $
1#
#9230
0#
#9240
b111111011010101 $
1#
#9250
0#
#9260
b1111110110101011 $
1#
#9270
0#
#9280
0!
b1111101101010111 $
1#
#9290
0#
#9300
1!
b1111011010101110 $
1#
#9310
0#
#9320
0!
b1110110101011101 $
1#
#9330
0#
#9340
1!
b1101101010111010 $
1#
#9350
0#
#9360
b1011010101110101 $
1#
#9370
0#
#9380
b110101011101011 $
1#
#9390
0#
#9400
0!
b1101010111010111 $
1#
#9410
0#
#9420
1!
b1010101110101110 $
1#
#9430
0#
#9440
0!
b101011101011101 $
1#
#9450
0#
#9460
1!
b1010111010111010 $
1#
#9470
0#
#9480
b101110101110101 $
1#
#9490
0#
#9500
0!
b1011101011101011 $
1#
#9510
0#
#9520
1!
b111010111010110 $
1#
#9530
0#
#9540
0!
b1110101110101101 $
1#
#9550
0#
#9560
1!
b1101011101011010 $
1#
#9570
0#
#9580
0!
b1010111010110101 $
1#
#9590
0#
#9600
b101110101101010 $
1#
#9610
0#
#9620
1!
b1011101011010100 $
1#
#9630
0#
#9640
0!
b111010110101001 $
1#
#9650
0#
#9660
1!
b1110101101010010 $
1#
#9670
0#
#9680
0!
b1101011010100101 $
1#
#9690
0#
#9700
1!
b1010110101001010 $
1#
#9710
0#
#9720
b101101010010101 $
1#
#9730
0#
#9740
0!
b1011010100101011 $
1#
#9750
0#
#9760
b110101001010110 $
1#
#9770
0#
#9780
1!
b1101010010101100 $
1#
#9790
0#
#9800
b1010100101011001 $
1#
#9810
0#
#9820
b101001010110011 $
1#
#9830
0#
#9840
0!
b1010010101100111 $
1#
#9850
0#
#9860
1!
b100101011001110 $
1#
#9870
0#
#9880
0!
b1001010110011101 $
1#
#9890
0#
#9900
b10101100111010 $
1#
#9910
0#
#9920
1!
b101011001110100 $
1#
#9930
0#
#9940
b1010110011101001 $
1#
#9950
0#
#9960
b101100111010011 $
1#
#9970
0#
#9980
b1011001110100111 $
1#
#9990
0#
#10000
b110011101001111 $
1#
#10010
0#
#10020
0!
b1100111010011111 $
1#
