assignment_5/lab5_client/hardware/alienSelect.vcd
$date
	Thu Mar 10 17:06:30 2016
$end
$version
	Icarus Verilog
$end
$timescale
	1s
$end
$scope module testBench $end
$scope module aSel1 $end
$var wire 10 ! switches [9:0] $end
$var reg 3 " x [2:0] $end
$var reg 2 # y [1:0] $end
$upscope $end
$upscope $end
$enddefinitions $end
#0
$dumpvars
bx #
bx "
bx !
$end
#40
b0 "
b0 #
b0 !
#60
b1 "
b1 !
#80
b10 "
b10 !
#100
b0 "
b11 !
#120
b11 "
b100 !
#140
b0 "
b101 !
#160
b110 !
#180
b111 !
#200
b100 "
b1000 !
#220
b0 "
b1001 !
#240
b1010 !
#260
b1011 !
#280
b1100 !
#300
b1101 !
#320
b1110 !
#340
b1111 !
#360
b101 "
b10000 !
#380
b0 "
b10001 !
#400
b10010 !
#420
b10011 !
#440
b10100 !
#460
b10101 !
#480
b10110 !
#500
b10111 !
#520
b11000 !
#540
b11001 !
#560
b11010 !
#580
b11011 !
#600
b11100 !
#620
b11101 !
#640
b11110 !
#660
b11111 !
#680
b110 "
b100000 !
#700
b0 "
b100001 !
#720
b100010 !
#740
b100011 !
#760
b100100 !
#780
b100101 !
#800
b100110 !
#820
b100111 !
#840
b101000 !
#860
b101001 !
#880
b101010 !
#900
b101011 !
#920
b101100 !
#940
b101101 !
#960
b101110 !
#980
b101111 !
#1000
b110000 !
#1020
b110001 !
#1040
b110010 !
#1060
b110011 !
#1080
b110100 !
#1100
b110101 !
#1120
b110110 !
#1140
b110111 !
#1160
b111000 !
#1180
b111001 !
#1200
b111010 !
#1220
b111011 !
#1240
b111100 !
#1260
b111101 !
#1280
b111110 !
#1300
b111111 !
#1320
b111 "
b1000000 !
#1340
b0 "
b1000001 !
#1360
b1000010 !
#1380
b1000011 !
#1400
b1000100 !
#1420
b1000101 !
#1440
b1000110 !
#1460
b1000111 !
#1480
b1001000 !
#1500
b1001001 !
#1520
b1001010 !
#1540
b1001011 !
#1560
b1001100 !
#1580
b1001101 !
#1600
b1001110 !
#1620
b1001111 !
#1640
b1010000 !
#1660
b1010001 !
#1680
b1010010 !
#1700
b1010011 !
#1720
b1010100 !
#1740
b1010101 !
#1760
b1010110 !
#1780
b1010111 !
#1800
b1011000 !
#1820
b1011001 !
#1840
b1011010 !
#1860
b1011011 !
#1880
b1011100 !
#1900
b1011101 !
#1920
b1011110 !
#1940
b1011111 !
#1960
b1100000 !
#1980
b1100001 !
#2000
b1100010 !
#2020
b1100011 !
#2040
b1100100 !
#2060
b1100101 !
#2080
b1100110 !
#2100
b1100111 !
#2120
b1101000 !
#2140
b1101001 !
#2160
b1101010 !
#2180
b1101011 !
#2200
b1101100 !
#2220
b1101101 !
#2240
b1101110 !
#2260
b1101111 !
#2280
b1110000 !
#2300
b1110001 !
#2320
b1110010 !
#2340
b1110011 !
#2360
b1110100 !
#2380
b1110101 !
#2400
b1110110 !
#2420
b1110111 !
#2440
b1111000 !
#2460
b1111001 !
#2480
b1111010 !
#2500
b1111011 !
#2520
b1111100 !
#2540
b1111101 !
#2560
b1111110 !
#2580
b1111111 !
#2600
b1 #
b10000000 !
#2620
b1 "
b10000001 !
#2640
b10 "
b10000010 !
#2660
b0 "
b10000011 !
#2680
b11 "
b10000100 !
#2700
b0 "
b10000101 !
#2720
b10000110 !
#2740
b10000111 !
#2760
b100 "
b10001000 !
#2780
b0 "
b10001001 !
#2800
b10001010 !
#2820
b10001011 !
#2840
b10001100 !
#2860
b10001101 !
#2880
b10001110 !
#2900
b10001111 !
#2920
b101 "
b10010000 !
#2940
b0 "
b10010001 !
#2960
b10010010 !
#2980
b10010011 !
#3000
b10010100 !
#3020
b10010101 !
#3040
b10010110 !
#3060
b10010111 !
#3080
b10011000 !
#3100
b10011001 !
#3120
b10011010 !
#3140
b10011011 !
#3160
b10011100 !
#3180
b10011101 !
#3200
b10011110 !
#3220
b10011111 !
#3240
b110 "
b10100000 !
#3260
b0 "
b10100001 !
#3280
b10100010 !
#3300
b10100011 !
#3320
b10100100 !
#3340
b10100101 !
#3360
b10100110 !
#3380
b10100111 !
#3400
b10101000 !
#3420
b10101001 !
#3440
b10101010 !
#3460
b10101011 !
#3480
b10101100 !
#3500
b10101101 !
#3520
b10101110 !
#3540
b10101111 !
#3560
b10110000 !
#3580
b10110001 !
#3600
b10110010 !
#3620
b10110011 !
#3640
b10110100 !
#3660
b10110101 !
#3680
b10110110 !
#3700
b10110111 !
#3720
b10111000 !
#3740
b10111001 !
#3760
b10111010 !
#3780
b10111011 !
#3800
b10111100 !
#3820
b10111101 !
#3840
b10111110 !
#3860
b10111111 !
#3880
b111 "
b11000000 !
#3900
b0 "
b11000001 !
#3920
b11000010 !
#3940
b11000011 !
#3960
b11000100 !
#3980
b11000101 !
#4000
b11000110 !
#4020
b11000111 !
#4040
b11001000 !
#4060
b11001001 !
#4080
b11001010 !
#4100
b11001011 !
#4120
b11001100 !
#4140
b11001101 !
#4160
b11001110 !
#4180
b11001111 !
#4200
b11010000 !
#4220
b11010001 !
#4240
b11010010 !
#4260
b11010011 !
#4280
b11010100 !
#4300
b11010101 !
#4320
b11010110 !
#4340
b11010111 !
#4360
b11011000 !
#4380
b11011001 !
#4400
b11011010 !
#4420
b11011011 !
#4440
b11011100 !
#4460
b11011101 !
#4480
b11011110 !
#4500
b11011111 !
#4520
b11100000 !
#4540
b11100001 !
#4560
b11100010 !
#4580
b11100011 !
#4600
b11100100 !
#4620
b11100101 !
#4640
b11100110 !
#4660
b11100111 !
#4680
b11101000 !
#4700
b11101001 !
#4720
b11101010 !
#4740
b11101011 !
#4760
b11101100 !
#4780
b11101101 !
#4800
b11101110 !
#4820
b11101111 !
#4840
b11110000 !
#4860
b11110001 !
#4880
b11110010 !
#4900
b11110011 !
#4920
b11110100 !
#4940
b11110101 !
#4960
b11110110 !
#4980
b11110111 !
#5000
b11111000 !
#5020
b11111001 !
#5040
b11111010 !
#5060
b11111011 !
#5080
b11111100 !
#5100
b11111101 !
#5120
b11111110 !
#5140
b11111111 !
#5160
b10 #
b100000000 !
#5180
b1 "
b100000001 !
#5200
b10 "
b100000010 !
#5220
b0 "
b100000011 !
#5240
b11 "
b100000100 !
#5260
b0 "
b100000101 !
#5280
b100000110 !
#5300
b100000111 !
#5320
b100 "
b100001000 !
#5340
b0 "
b100001001 !
#5360
b100001010 !
#5380
b100001011 !
#5400
b100001100 !
#5420
b100001101 !
#5440
b100001110 !
#5460
b100001111 !
#5480
b101 "
b100010000 !
#5500
b0 "
b100010001 !
#5520
b100010010 !
#5540
b100010011 !
#5560
b100010100 !
#5580
b100010101 !
#5600
b100010110 !
#5620
b100010111 !
#5640
b100011000 !
#5660
b100011001 !
#5680
b100011010 !
#5700
b100011011 !
#5720
b100011100 !
#5740
b100011101 !
#5760
b100011110 !
#5780
b100011111 !
#5800
b110 "
b100100000 !
#5820
b0 "
b100100001 !
#5840
b100100010 !
#5860
b100100011 !
#5880
b100100100 !
#5900
b100100101 !
#5920
b100100110 !
#5940
b100100111 !
#5960
b100101000 !
#5980
b100101001 !
#6000
b100101010 !
#6020
b100101011 !
#6040
b100101100 !
#6060
b100101101 !
#6080
b100101110 !
#6100
b100101111 !
#6120
b100110000 !
#6140
b100110001 !
#6160
b100110010 !
#6180
b100110011 !
#6200
b100110100 !
#6220
b100110101 !
#6240
b100110110 !
#6260
b100110111 !
#6280
b100111000 !
#6300
b100111001 !
#6320
b100111010 !
#6340
b100111011 !
#6360
b100111100 !
#6380
b100111101 !
#6400
b100111110 !
#6420
b100111111 !
#6440
b111 "
b101000000 !
#6460
b0 "
b101000001 !
#6480
b101000010 !
#6500
b101000011 !
#6520
b101000100 !
#6540
b101000101 !
#6560
b101000110 !
#6580
b101000111 !
#6600
b101001000 !
#6620
b101001001 !
#6640
b101001010 !
#6660
b101001011 !
#6680
b101001100 !
#6700
b101001101 !
#6720
b101001110 !
#6740
b101001111 !
#6760
b101010000 !
#6780
b101010001 !
#6800
b101010010 !
#6820
b101010011 !
#6840
b101010100 !
#6860
b101010101 !
#6880
b101010110 !
#6900
b101010111 !
#6920
b101011000 !
#6940
b101011001 !
#6960
b101011010 !
#6980
b101011011 !
#7000
b101011100 !
#7020
b101011101 !
#7040
b101011110 !
#7060
b101011111 !
#7080
b101100000 !
#7100
b101100001 !
#7120
b101100010 !
#7140
b101100011 !
#7160
b101100100 !
#7180
b101100101 !
#7200
b101100110 !
#7220
b101100111 !
#7240
b101101000 !
#7260
b101101001 !
#7280
b101101010 !
#7300
b101101011 !
#7320
b101101100 !
#7340
b101101101 !
#7360
b101101110 !
#7380
b101101111 !
#7400
b101110000 !
#7420
b101110001 !
#7440
b101110010 !
#7460
b101110011 !
#7480
b101110100 !
#7500
b101110101 !
#7520
b101110110 !
#7540
b101110111 !
#7560
b101111000 !
#7580
b101111001 !
#7600
b101111010 !
#7620
b101111011 !
#7640
b101111100 !
#7660
b101111101 !
#7680
b101111110 !
#7700
b101111111 !
#7720
b0 #
b110000000 !
#7740
b1 "
b110000001 !
#7760
b10 "
b110000010 !
#7780
b0 "
b110000011 !
#7800
b11 "
b110000100 !
#7820
b0 "
b110000101 !
#7840
b110000110 !
#7860
b110000111 !
#7880
b100 "
b110001000 !
#7900
b0 "
b110001001 !
#7920
b110001010 !
#7940
b110001011 !
#7960
b110001100 !
#7980
b110001101 !
#8000
b110001110 !
#8020
b110001111 !
#8040
b101 "
b110010000 !
#8060
b0 "
b110010001 !
#8080
b110010010 !
#8100
b110010011 !
#8120
b110010100 !
#8140
b110010101 !
#8160
b110010110 !
#8180
b110010111 !
#8200
b110011000 !
#8220
b110011001 !
#8240
b110011010 !
#8260
b110011011 !
#8280
b110011100 !
#8300
b110011101 !
#8320
b110011110 !
#8340
b110011111 !
#8360
b110 "
b110100000 !
#8380
b0 "
b110100001 !
#8400
b110100010 !
#8420
b110100011 !
#8440
b110100100 !
#8460
b110100101 !
#8480
b110100110 !
#8500
b110100111 !
#8520
b110101000 !
#8540
b110101001 !
#8560
b110101010 !
#8580
b110101011 !
#8600
b110101100 !
#8620
b110101101 !
#8640
b110101110 !
#8660
b110101111 !
#8680
b110110000 !
#8700
b110110001 !
#8720
b110110010 !
#8740
b110110011 !
#8760
b110110100 !
#8780
b110110101 !
#8800
b110110110 !
#8820
b110110111 !
#8840
b110111000 !
#8860
b110111001 !
#8880
b110111010 !
#8900
b110111011 !
#8920
b110111100 !
#8940
b110111101 !
#8960
b110111110 !
#8980
b110111111 !
#9000
b111 "
b111000000 !
#9020
b0 "
b111000001 !
#9040
b111000010 !
#9060
b111000011 !
#9080
b111000100 !
#9100
b111000101 !
#9120
b111000110 !
#9140
b111000111 !
#9160
b111001000 !
#9180
b111001001 !
#9200
b111001010 !
#9220
b111001011 !
#9240
b111001100 !
#9260
b111001101 !
#9280
b111001110 !
#9300
b111001111 !
#9320
b111010000 !
#9340
b111010001 !
#9360
b111010010 !
#9380
b111010011 !
#9400
b111010100 !
#9420
b111010101 !
#9440
b111010110 !
#9460
b111010111 !
#9480
b111011000 !
#9500
b111011001 !
#9520
b111011010 !
#9540
b111011011 !
#9560
b111011100 !
#9580
b111011101 !
#9600
b111011110 !
#9620
b111011111 !
#9640
b111100000 !
#9660
b111100001 !
#9680
b111100010 !
#9700
b111100011 !
#9720
b111100100 !
#9740
b111100101 !
#9760
b111100110 !
#9780
b111100111 !
#9800
b111101000 !
#9820
b111101001 !
#9840
b111101010 !
#9860
b111101011 !
#9880
b111101100 !
#9900
b111101101 !
#9920
b111101110 !
#9940
b111101111 !
#9960
b111110000 !
#9980
b111110001 !
#10000
b111110010 !
#10020
b111110011 !
#10040
b111110100 !
#10060
b111110101 !
#10080
b111110110 !
#10100
b111110111 !
#10120
b111111000 !
#10140
b111111001 !
#10160
b111111010 !
#10180
b111111011 !
#10200
b111111100 !
#10220
b111111101 !
#10240
b111111110 !
#10260
b111111111 !
#10280
b11 #
b1000000000 !
#10300
b1 "
b1000000001 !
#10320
b10 "
b1000000010 !
#10340
b0 "
b1000000011 !
#10360
b11 "
b1000000100 !
#10380
b0 "
b1000000101 !
#10400
b1000000110 !
#10420
b1000000111 !
#10440
b100 "
b1000001000 !
#10460
b0 "
b1000001001 !
#10480
b1000001010 !
#10500
b1000001011 !
#10520
b1000001100 !
#10540
b1000001101 !
#10560
b1000001110 !
#10580
b1000001111 !
#10600
b101 "
b1000010000 !
#10620
b0 "
b1000010001 !
#10640
b1000010010 !
#10660
b1000010011 !
#10680
b1000010100 !
#10700
b1000010101 !
#10720
b1000010110 !
#10740
b1000010111 !
#10760
b1000011000 !
#10780
b1000011001 !
#10800
b1000011010 !
#10820
b1000011011 !
#10840
b1000011100 !
#10860
b1000011101 !
#10880
b1000011110 !
#10900
b1000011111 !
#10920
b110 "
b1000100000 !
#10940
b0 "
b1000100001 !
#10960
b1000100010 !
#10980
b1000100011 !
#11000
b1000100100 !
#11020
b1000100101 !
#11040
b1000100110 !
#11060
b1000100111 !
#11080
b1000101000 !
#11100
b1000101001 !
#11120
b1000101010 !
#11140
b1000101011 !
#11160
b1000101100 !
#11180
b1000101101 !
#11200
b1000101110 !
#11220
b1000101111 !
#11240
b1000110000 !
#11260
b1000110001 !
#11280
b1000110010 !
#11300
b1000110011 !
#11320
b1000110100 !
#11340
b1000110101 !
#11360
b1000110110 !
#11380
b1000110111 !
#11400
b1000111000 !
#11420
b1000111001 !
#11440
b1000111010 !
#11460
b1000111011 !
#11480
b1000111100 !
#11500
b1000111101 !
#11520
b1000111110 !
#11540
b1000111111 !
#11560
b111 "
b1001000000 !
#11580
b0 "
b1001000001 !
#11600
b1001000010 !
#11620
b1001000011 !
#11640
b1001000100 !
#11660
b1001000101 !
#11680
b1001000110 !
#11700
b1001000111 !
#11720
b1001001000 !
#11740
b1001001001 !
#11760
b1001001010 !
#11780
b1001001011 !
#11800
b1001001100 !
#11820
b1001001101 !
#11840
b1001001110 !
#11860
b1001001111 !
#11880
b1001010000 !
#11900
b1001010001 !
#11920
b1001010010 !
#11940
b1001010011 !
#11960
b1001010100 !
#11980
b1001010101 !
#12000
b1001010110 !
#12020
b1001010111 !
#12040
b1001011000 !
#12060
b1001011001 !
#12080
b1001011010 !
#12100
b1001011011 !
#12120
b1001011100 !
#12140
b1001011101 !
#12160
b1001011110 !
#12180
b1001011111 !
#12200
b1001100000 !
#12220
b1001100001 !
#12240
b1001100010 !
#12260
b1001100011 !
#12280
b1001100100 !
#12300
b1001100101 !
#12320
b1001100110 !
#12340
b1001100111 !
#12360
b1001101000 !
#12380
b1001101001 !
#12400
b1001101010 !
#12420
b1001101011 !
#12440
b1001101100 !
#12460
b1001101101 !
#12480
b1001101110 !
#12500
b1001101111 !
#12520
b1001110000 !
#12540
b1001110001 !
#12560
b1001110010 !
#12580
b1001110011 !
#12600
b1001110100 !
#12620
b1001110101 !
#12640
b1001110110 !
#12660
b1001110111 !
#12680
b1001111000 !
#12700
b1001111001 !
#12720
b1001111010 !
#12740
b1001111011 !
#12760
b1001111100 !
#12780
b1001111101 !
#12800
b1001111110 !
#12820
b1001111111 !
#12840
b0 #
b1010000000 !
#12860
b1 "
b1010000001 !
#12880
b10 "
b1010000010 !
#12900
b0 "
b1010000011 !
#12920
b11 "
b1010000100 !
#12940
b0 "
b1010000101 !
#12960
b1010000110 !
#12980
b1010000111 !
#13000
b100 "
b1010001000 !
#13020
b0 "
b1010001001 !
#13040
b1010001010 !
#13060
b1010001011 !
#13080
b1010001100 !
#13100
b1010001101 !
#13120
b1010001110 !
#13140
b1010001111 !
#13160
b101 "
b1010010000 !
#13180
b0 "
b1010010001 !
#13200
b1010010010 !
#13220
b1010010011 !
#13240
b1010010100 !
#13260
b1010010101 !
#13280
b1010010110 !
#13300
b1010010111 !
#13320
b1010011000 !
#13340
b1010011001 !
#13360
b1010011010 !
#13380
b1010011011 !
#13400
b1010011100 !
#13420
b1010011101 !
#13440
b1010011110 !
#13460
b1010011111 !
#13480
b110 "
b1010100000 !
#13500
b0 "
b1010100001 !
#13520
b1010100010 !
#13540
b1010100011 !
#13560
b1010100100 !
#13580
b1010100101 !
#13600
b1010100110 !
#13620
b1010100111 !
#13640
b1010101000 !
#13660
b1010101001 !
#13680
b1010101010 !
#13700
b1010101011 !
#13720
b1010101100 !
#13740
b1010101101 !
#13760
b1010101110 !
#13780
b1010101111 !
#13800
b1010110000 !
#13820
b1010110001 !
#13840
b1010110010 !
#13860
b1010110011 !
#13880
b1010110100 !
#13900
b1010110101 !
#13920
b1010110110 !
#13940
b1010110111 !
#13960
b1010111000 !
#13980
b1010111001 !
#14000
b1010111010 !
#14020
b1010111011 !
#14040
b1010111100 !
#14060
b1010111101 !
#14080
b1010111110 !
#14100
b1010111111 !
#14120
b111 "
b1011000000 !
#14140
b0 "
b1011000001 !
#14160
b1011000010 !
#14180
b1011000011 !
#14200
b1011000100 !
#14220
b1011000101 !
#14240
b1011000110 !
#14260
b1011000111 !
#14280
b1011001000 !
#14300
b1011001001 !
#14320
b1011001010 !
#14340
b1011001011 !
#14360
b1011001100 !
#14380
b1011001101 !
#14400
b1011001110 !
#14420
b1011001111 !
#14440
b1011010000 !
#14460
b1011010001 !
#14480
b1011010010 !
#14500
b1011010011 !
#14520
b1011010100 !
#14540
b1011010101 !
#14560
b1011010110 !
#14580
b1011010111 !
#14600
b1011011000 !
#14620
b1011011001 !
#14640
b1011011010 !
#14660
b1011011011 !
#14680
b1011011100 !
#14700
b1011011101 !
#14720
b1011011110 !
#14740
b1011011111 !
#14760
b1011100000 !
#14780
b1011100001 !
#14800
b1011100010 !
#14820
b1011100011 !
#14840
b1011100100 !
#14860
b1011100101 !
#14880
b1011100110 !
#14900
b1011100111 !
#14920
b1011101000 !
#14940
b1011101001 !
#14960
b1011101010 !
#14980
b1011101011 !
#15000
b1011101100 !
#15020
b1011101101 !
#15040
b1011101110 !
#15060
b1011101111 !
#15080
b1011110000 !
#15100
b1011110001 !
#15120
b1011110010 !
#15140
b1011110011 !
#15160
b1011110100 !
#15180
b1011110101 !
#15200
b1011110110 !
#15220
b1011110111 !
#15240
b1011111000 !
#15260
b1011111001 !
#15280
b1011111010 !
#15300
b1011111011 !
#15320
b1011111100 !
#15340
b1011111101 !
#15360
b1011111110 !
#15380
b1011111111 !
#15400
b1100000000 !
#15420
b1 "
b1100000001 !
#15440
b10 "
b1100000010 !
#15460
b0 "
b1100000011 !
#15480
b11 "
b1100000100 !
#15500
b0 "
b1100000101 !
#15520
b1100000110 !
#15540
b1100000111 !
#15560
b100 "
b1100001000 !
#15580
b0 "
b1100001001 !
#15600
b1100001010 !
#15620
b1100001011 !
#15640
b1100001100 !
#15660
b1100001101 !
#15680
b1100001110 !
#15700
b1100001111 !
#15720
b101 "
b1100010000 !
#15740
b0 "
b1100010001 !
#15760
b1100010010 !
#15780
b1100010011 !
#15800
b1100010100 !
#15820
b1100010101 !
#15840
b1100010110 !
#15860
b1100010111 !
#15880
b1100011000 !
#15900
b1100011001 !
#15920
b1100011010 !
#15940
b1100011011 !
#15960
b1100011100 !
#15980
b1100011101 !
#16000
b1100011110 !
#16020
b1100011111 !
#16040
b110 "
b1100100000 !
#16060
b0 "
b1100100001 !
#16080
b1100100010 !
#16100
b1100100011 !
#16120
b1100100100 !
#16140
b1100100101 !
#16160
b1100100110 !
#16180
b1100100111 !
#16200
b1100101000 !
#16220
b1100101001 !
#16240
b1100101010 !
#16260
b1100101011 !
#16280
b1100101100 !
#16300
b1100101101 !
#16320
b1100101110 !
#16340
b1100101111 !
#16360
b1100110000 !
#16380
b1100110001 !
#16400
b1100110010 !
#16420
b1100110011 !
#16440
b1100110100 !
#16460
b1100110101 !
#16480
b1100110110 !
#16500
b1100110111 !
#16520
b1100111000 !
#16540
b1100111001 !
#16560
b1100111010 !
#16580
b1100111011 !
#16600
b1100111100 !
#16620
b1100111101 !
#16640
b1100111110 !
#16660
b1100111111 !
#16680
b111 "
b1101000000 !
#16700
b0 "
b1101000001 !
#16720
b1101000010 !
#16740
b1101000011 !
#16760
b1101000100 !
#16780
b1101000101 !
#16800
b1101000110 !
#16820
b1101000111 !
#16840
b1101001000 !
#16860
b1101001001 !
#16880
b1101001010 !
#16900
b1101001011 !
#16920
b1101001100 !
#16940
b1101001101 !
#16960
b1101001110 !
#16980
b1101001111 !
#17000
b1101010000 !
#17020
b1101010001 !
#17040
b1101010010 !
#17060
b1101010011 !
#17080
b1101010100 !
#17100
b1101010101 !
#17120
b1101010110 !
#17140
b1101010111 !
#17160
b1101011000 !
#17180
b1101011001 !
#17200
b1101011010 !
#17220
b1101011011 !
#17240
b1101011100 !
#17260
b1101011101 !
#17280
b1101011110 !
#17300
b1101011111 !
#17320
b1101100000 !
#17340
b1101100001 !
#17360
b1101100010 !
#17380
b1101100011 !
#17400
b1101100100 !
#17420
b1101100101 !
#17440
b1101100110 !
#17460
b1101100111 !
#17480
b1101101000 !
#17500
b1101101001 !
#17520
b1101101010 !
#17540
b1101101011 !
#17560
b1101101100 !
#17580
b1101101101 !
#17600
b1101101110 !
#17620
b1101101111 !
#17640
b1101110000 !
#17660
b1101110001 !
#17680
b1101110010 !
#17700
b1101110011 !
#17720
b1101110100 !
#17740
b1101110101 !
#17760
b1101110110 !
#17780
b1101110111 !
#17800
b1101111000 !
#17820
b1101111001 !
#17840
b1101111010 !
#17860
b1101111011 !
#17880
b1101111100 !
#17900
b1101111101 !
#17920
b1101111110 !
#17940
b1101111111 !
#17960
b1110000000 !
#17980
b1 "
b1110000001 !
#18000
b10 "
b1110000010 !
#18020
b0 "
b1110000011 !
#18040
b11 "
b1110000100 !
#18060
b0 "
b1110000101 !
#18080
b1110000110 !
#18100
b1110000111 !
#18120
b100 "
b1110001000 !
#18140
b0 "
b1110001001 !
#18160
b1110001010 !
#18180
b1110001011 !
#18200
b1110001100 !
#18220
b1110001101 !
#18240
b1110001110 !
#18260
b1110001111 !
#18280
b101 "
b1110010000 !
#18300
b0 "
b1110010001 !
#18320
b1110010010 !
#18340
b1110010011 !
#18360
b1110010100 !
#18380
b1110010101 !
#18400
b1110010110 !
#18420
b1110010111 !
#18440
b1110011000 !
#18460
b1110011001 !
#18480
b1110011010 !
#18500
b1110011011 !
#18520
b1110011100 !
#18540
b1110011101 !
#18560
b1110011110 !
#18580
b1110011111 !
#18600
b110 "
b1110100000 !
#18620
b0 "
b1110100001 !
#18640
b1110100010 !
#18660
b1110100011 !
#18680
b1110100100 !
#18700
b1110100101 !
#18720
b1110100110 !
#18740
b1110100111 !
#18760
b1110101000 !
#18780
b1110101001 !
#18800
b1110101010 !
#18820
b1110101011 !
#18840
b1110101100 !
#18860
b1110101101 !
#18880
b1110101110 !
#18900
b1110101111 !
#18920
b1110110000 !
#18940
b1110110001 !
#18960
b1110110010 !
#18980
b1110110011 !
#19000
b1110110100 !
#19020
b1110110101 !
#19040
b1110110110 !
#19060
b1110110111 !
#19080
b1110111000 !
#19100
b1110111001 !
#19120
b1110111010 !
#19140
b1110111011 !
#19160
b1110111100 !
#19180
b1110111101 !
#19200
b1110111110 !
#19220
b1110111111 !
#19240
b111 "
b1111000000 !
#19260
b0 "
b1111000001 !
#19280
b1111000010 !
#19300
b1111000011 !
#19320
b1111000100 !
#19340
b1111000101 !
#19360
b1111000110 !
#19380
b1111000111 !
#19400
b1111001000 !
#19420
b1111001001 !
#19440
b1111001010 !
#19460
b1111001011 !
#19480
b1111001100 !
#19500
b1111001101 !
#19520
b1111001110 !
#19540
b1111001111 !
#19560
b1111010000 !
#19580
b1111010001 !
#19600
b1111010010 !
#19620
b1111010011 !
#19640
b1111010100 !
#19660
b1111010101 !
#19680
b1111010110 !
#19700
b1111010111 !
#19720
b1111011000 !
#19740
b1111011001 !
#19760
b1111011010 !
#19780
b1111011011 !
#19800
b1111011100 !
#19820
b1111011101 !
#19840
b1111011110 !
#19860
b1111011111 !
#19880
b1111100000 !
#19900
b1111100001 !
#19920
b1111100010 !
#19940
b1111100011 !
#19960
b1111100100 !
#19980
b1111100101 !
#20000
b1111100110 !
#20020
b1111100111 !
#20040
b1111101000 !
#20060
b1111101001 !
#20080
b1111101010 !
#20100
b1111101011 !
#20120
b1111101100 !
#20140
b1111101101 !
#20160
b1111101110 !
#20180
b1111101111 !
#20200
b1111110000 !
#20220
b1111110001 !
#20240
b1111110010 !
#20260
b1111110011 !
#20280
b1111110100 !
#20300
b1111110101 !
#20320
b1111110110 !
#20340
b1111110111 !
#20360
b1111111000 !
#20380
b1111111001 !
#20400
b1111111010 !
#20420
b1111111011 !
#20440
b1111111100 !
#20460
b1111111101 !
#20480
b1111111110 !
#20500
b1111111111 !
#20520
b0 !
