assignment_5/lab5_client/TopLevel.vcd
$date
	Tue Feb 23 15:06:11 2016
$end
$version
	Icarus Verilog
$end
$timescale
	1s
$end
$scope module System_testbench $end
$scope module top $end
$var wire 1 ! SClk $end
$var wire 1 " load $end
$var wire 8 # parallel_out [7:0] $end
$var wire 1 $ reset $end
$var wire 1 % serial_in $end
$var wire 1 & transmit_enable $end
$var wire 1 ' serial_out $end
$var wire 8 ( parallel_in [7:0] $end
$var wire 1 ) in_enable $end
$var wire 1 * char_sent $end
$var wire 1 + char_received $end
$var wire 4 , BSC_out_Count [3:0] $end
$var wire 4 - BSC_in_Count [3:0] $end
$upscope $end
$upscope $end
$enddefinitions $end
#0
$dumpvars
bx -
bx ,
x+
x*
x)
bx (
x'
x&
x%
x$
bx #
x"
0!
$end
#50
1!
#100
0!
#150
1%
1!
#200
0!
#250
0$
1!
#300
0!
#350
0)
1$
1!
#400
0!
#450
0+
b0 -
0"
0&
1!
#500
0!
#550
0*
b0 ,
1!
#600
0!
#650
1!
#700
0!
#750
1!
#800
0!
#850
1!
#900
0!
#950
1!
#1000
0!
#1050
1!
#1100
0!
#1150
1!
#1200
0!
#1250
0%
1!
#1300
0!
#1350
1)
1!
#1400
0!
#1450
b1 -
1!
#1500
0!
#1550
b10 -
1!
#1600
0!
#1650
b11 -
1!
#1700
0!
#1750
b100 -
1!
#1800
0!
#1850
b101 -
1!
#1900
0!
#1950
b110 -
1!
#2000
0!
#2050
b111 -
1!
#2100
0!
#2150
bx0 (
b1000 -
1!
#2200
0!
#2250
b1001 -
1!
#2300
0!
#2350
b1010 -
1!
#2400
0!
#2450
b1011 -
1!
#2500
0!
#2550
b1100 -
1!
#2600
0!
#2650
b1101 -
1!
#2700
0!
#2750
b1110 -
1!
#2800
0!
#2850
b1111 -
1%
1!
#2900
0!
#2950
b0 -
1!
#3000
0!
#3050
b1 -
1!
#3100
0!
#3150
b10 -
1!
#3200
0!
#3250
b11 -
1!
#3300
0!
#3350
b100 -
1!
#3400
0!
#3450
b101 -
1!
#3500
0!
#3550
b110 -
1!
#3600
0!
#3650
b111 -
1!
#3700
0!
#3750
bx01 (
b1000 -
1!
#3800
0!
#3850
b1001 -
1!
#3900
0!
#3950
b1010 -
1!
#4000
0!
#4050
b1011 -
1!
#4100
0!
#4150
b1100 -
1!
#4200
0!
#4250
b1101 -
1!
#4300
0!
#4350
b1110 -
1!
#4400
0!
#4450
b1111 -
0%
1!
#4500
0!
#4550
b0 -
1!
#4600
0!
#4650
b1 -
1!
#4700
0!
#4750
b10 -
1!
#4800
0!
#4850
b11 -
1!
#4900
0!
#4950
b100 -
1!
#5000
0!
#5050
b101 -
1!
#5100
0!
#5150
b110 -
1!
#5200
0!
#5250
b111 -
1!
#5300
0!
#5350
bx010 (
b1000 -
1!
#5400
0!
#5450
b1001 -
1!
#5500
0!
#5550
b1010 -
1!
#5600
0!
#5650
b1011 -
1!
#5700
0!
#5750
b1100 -
1!
#5800
0!
#5850
b1101 -
1!
#5900
0!
#5950
b1110 -
1!
#6000
0!
#6050
b1111 -
1%
1!
#6100
0!
#6150
b0 -
1!
#6200
0!
#6250
b1 -
1!
#6300
0!
#6350
b10 -
1!
#6400
0!
#6450
b11 -
1!
#6500
0!
#6550
b100 -
1!
#6600
0!
#6650
b101 -
1!
#6700
0!
#6750
b110 -
1!
#6800
0!
#6850
b111 -
1!
#6900
0!
#6950
bx0101 (
b1000 -
1!
#7000
0!
#7050
b1001 -
1!
#7100
0!
#7150
b1010 -
1!
#7200
0!
#7250
b1011 -
1!
#7300
0!
#7350
b1100 -
1!
#7400
0!
#7450
b1101 -
1!
#7500
0!
#7550
b1110 -
1!
#7600
0!
#7650
b1111 -
0%
1!
#7700
0!
#7750
b0 -
1!
#7800
0!
#7850
b1 -
1!
#7900
0!
#7950
b10 -
1!
#8000
0!
#8050
b11 -
1!
#8100
0!
#8150
b100 -
1!
#8200
0!
#8250
b101 -
1!
#8300
0!
#8350
b110 -
1!
#8400
0!
#8450
b111 -
1!
#8500
0!
#8550
bx01010 (
b1000 -
1!
#8600
0!
#8650
b1001 -
1!
#8700
0!
#8750
b1010 -
1!
#8800
0!
#8850
b1011 -
1!
#8900
0!
#8950
b1100 -
1!
#9000
0!
#9050
b1101 -
1!
#9100
0!
#9150
b1110 -
1!
#9200
0!
#9250
b1111 -
1%
1!
#9300
0!
#9350
b0 -
1!
#9400
0!
#9450
b1 -
1!
#9500
0!
#9550
b10 -
1!
#9600
0!
#9650
b11 -
1!
#9700
0!
#9750
b100 -
1!
#9800
0!
#9850
b101 -
1!
#9900
0!
#9950
b110 -
1!
#10000
0!
#10050
b111 -
1!
#10100
0!
#10150
bx010101 (
b1000 -
1!
#10200
0!
#10250
b1001 -
1!
#10300
0!
#10350
b1010 -
1!
#10400
0!
#10450
b1011 -
1!
#10500
0!
#10550
b1100 -
1!
#10600
0!
#10650
b1101 -
1!
#10700
0!
#10750
b1110 -
1!
#10800
0!
#10850
b1111 -
0%
1!
#10900
0!
#10950
b0 -
1!
#11000
0!
#11050
b1 -
1!
#11100
0!
#11150
b10 -
1!
#11200
0!
#11250
b11 -
1!
#11300
0!
#11350
b100 -
1!
#11400
0!
#11450
b101 -
1!
#11500
0!
#11550
b110 -
1!
#11600
0!
#11650
b111 -
1!
#11700
0!
#11750
bx0101010 (
b1000 -
1!
#11800
0!
#11850
b1001 -
1!
#11900
0!
#11950
b1010 -
1!
#12000
0!
#12050
b1011 -
1!
#12100
0!
#12150
b1100 -
1!
#12200
0!
#12250
b1101 -
1!
#12300
0!
#12350
b1110 -
1!
#12400
0!
#12450
b1111 -
1%
1!
#12500
0!
#12550
b0 -
1!
#12600
0!
#12650
b1 -
1!
#12700
0!
#12750
b10 -
1!
#12800
0!
#12850
b11 -
1!
#12900
0!
#12950
b100 -
1!
#13000
0!
#13050
b101 -
1!
#13100
0!
#13150
b110 -
1!
#13200
0!
#13250
b111 -
1!
#13300
0!
#13350
b1010101 (
b1000 -
1!
#13400
0!
#13450
b1001 -
1!
#13500
0!
#13550
b1010 -
1!
#13600
0!
#13650
b1011 -
1!
#13700
0!
#13750
b1100 -
1!
#13800
0!
#13850
b1101 -
1!
#13900
0!
#13950
b1110 -
1!
#14000
0!
#14050
b1111 -
0%
1!
#14100
0!
#14150
b0 -
1!
#14200
0!
#14250
b1 -
1!
#14300
0!
#14350
b10 -
1!
#14400
0!
#14450
b11 -
1!
#14500
0!
#14550
b100 -
1!
#14600
0!
#14650
b101 -
1!
#14700
0!
#14750
b110 -
1!
#14800
0!
#14850
b111 -
1!
#14900
0!
#14950
b10101010 (
b1000 -
1!
#15000
0!
#15050
b1001 -
1!
#15100
0!
#15150
b1010 -
1!
#15200
0!
#15250
b1011 -
1!
#15300
0!
#15350
b1100 -
1!
#15400
0!
#15450
b1101 -
1!
#15500
0!
#15550
b1110 -
1!
#15600
0!
#15650
b1111 -
1%
1!
#15700
0!
#15750
1+
b0 -
1!
#15800
0!
#15850
0)
b1 -
1!
#15900
0!
#15950
b0 -
1!
#16000
0!
#16050
1!
#16100
0!
#16150
1!
#16200
0!
#16250
1!
#16300
0!
#16350
1!
#16400
0!
#16450
1!
#16500
0!
#16550
1!
#16600
0!
#16650
1!
#16700
0!
#16750
1!
#16800
0!
#16850
1!
#16900
0!
#16950
1!
#17000
0!
#17050
1!
#17100
0!
#17150
1!
#17200
0!
#17250
0%
1!
#17300
0!
#17350
1)
1!
#17400
0!
#17450
0)
b1 -
1!
#17500
0!
#17550
1)
b0 -
1!
#17600
0!
#17650
0)
b1 -
1!
#17700
0!
#17750
1)
b0 -
1!
#17800
0!
#17850
0)
b1 -
1!
#17900
0!
#17950
1)
b0 -
1!
#18000
0!
#18050
0)
b1 -
1!
#18100
0!
#18150
1)
b0 -
1!
#18200
0!
#18250
0)
b1 -
1!
#18300
0!
#18350
1)
b0 -
1!
#18400
0!
#18450
0)
b1 -
1!
#18500
0!
#18550
1)
b0 -
1!
#18600
0!
#18650
0)
b1 -
1!
#18700
0!
#18750
1)
b0 -
1!
#18800
0!
#18850
0)
b1 -
1!
