assignment_5/Host_Server Code/receiving.vcd
$date
	Mon Feb 22 01:23:21 2016
$end
$version
	Icarus Verilog
$end
$timescale
	1s
$end
$scope module receiving_testbench $end
$scope module receiving_test $end
$var wire 10 ! SR_out [9:0] $end
$var wire 1 " SRclk $end
$var wire 4 # bitID [3:0] $end
$var wire 4 $ bitSample [3:0] $end
$var wire 1 % buffer_out $end
$var wire 1 & charReceived $end
$var wire 1 ' characterReceived $end
$var wire 1 ( clk $end
$var wire 1 ) data_in $end
$var wire 10 * data_out [9:0] $end
$var wire 1 + enable $end
$var wire 1 , reset $end
$upscope $end
$upscope $end
$enddefinitions $end
#0
$dumpvars
x,
0+
bx *
x)
x(
0'
0&
x%
b0 $
b0 #
0"
bx !
$end
#20
1%
1)
0,
1(
#30
0(
#40
b0 !
b0 *
1(
1,
#50
0(
#60
1(
0,
#70
0(
#80
1(
#90
0(
#100
1(
#110
0(
#120
1(
#130
0(
#140
1(
#150
0(
#160
1(
#170
0(
#180
1(
#190
0(
#200
1(
#210
0(
#220
1(
#230
0(
#240
1(
#250
0(
#260
1(
#270
0(
#280
1(
#290
0(
#300
1(
#310
0(
#320
1(
#330
0(
#340
1(
#350
0(
#360
1(
#370
0(
#380
1(
#390
0(
#400
1(
#410
0(
#420
1(
#430
0(
#440
1(
#450
0(
#460
1(
#470
0(
#480
1(
#490
0(
#500
1(
#510
0(
#520
1(
#530
0(
#540
1(
#550
0(
#560
1(
#570
0(
#580
1(
#590
0(
#600
1(
#610
0(
#620
1(
#630
0(
#640
1(
#650
0(
#660
1(
#670
0(
#680
1(
#690
0(
#700
1(
#710
0(
#720
1(
#730
0(
#740
1(
#750
0(
#760
1(
#770
0(
#780
1(
#790
0(
#800
1(
#810
0(
#820
1(
#830
0(
#840
1(
#850
0(
#860
1(
#870
0(
#880
1(
#890
0(
#900
1(
#910
0(
#920
1(
#930
0(
#940
1(
#950
0(
#960
1(
#970
0(
#980
1(
#990
0(
#1000
1(
#1010
0(
#1020
0%
1(
0)
#1030
0(
#1040
1+
1(
#1050
0(
#1060
1(
#1070
0(
#1080
b1 $
1(
#1090
0(
#1100
b10 $
1(
#1110
0(
#1120
b11 $
1(
#1130
0(
#1140
b100 $
1(
#1150
0(
#1160
b101 $
1(
#1170
0(
#1180
b110 $
1(
#1190
0(
#1200
1"
b111 $
1(
#1210
0(
#1220
0"
b1000 $
1(
#1230
0(
#1240
b1001 $
1(
#1250
0(
#1260
b1010 $
1(
#1270
0(
#1280
b1011 $
1(
#1290
0(
#1300
b1100 $
1(
#1310
0(
#1320
b1101 $
1(
#1330
0(
#1340
1%
b1110 $
1(
1)
#1350
0(
#1360
b1111 $
1(
#1370
0(
#1380
b0 $
b1 #
1(
#1390
0(
#1400
b1 $
1(
#1410
0(
#1420
b10 $
1(
#1430
0(
#1440
b11 $
1(
#1450
0(
#1460
b100 $
1(
#1470
0(
#1480
b101 $
1(
#1490
0(
#1500
b110 $
1(
#1510
0(
#1520
b1 !
b1 *
1"
b111 $
1(
#1530
0(
#1540
0"
b1000 $
1(
#1550
0(
#1560
b1001 $
1(
#1570
0(
#1580
b1010 $
1(
#1590
0(
#1600
b1011 $
1(
#1610
0(
#1620
b1100 $
1(
#1630
0(
#1640
b1101 $
1(
#1650
0(
#1660
b1110 $
1(
#1670
0(
#1680
b1111 $
1(
#1690
0(
#1700
b0 $
b10 #
1(
#1710
0(
#1720
b1 $
1(
#1730
0(
#1740
b10 $
1(
#1750
0(
#1760
b11 $
1(
#1770
0(
#1780
b100 $
1(
#1790
0(
#1800
b101 $
1(
#1810
0(
#1820
b110 $
1(
#1830
0(
#1840
b11 !
b11 *
1"
b111 $
1(
#1850
0(
#1860
0"
b1000 $
1(
#1870
0(
#1880
b1001 $
1(
#1890
0(
#1900
b1010 $
1(
#1910
0(
#1920
b1011 $
1(
#1930
0(
#1940
b1100 $
1(
#1950
0(
#1960
b1101 $
1(
#1970
0(
#1980
0%
b1110 $
1(
0)
#1990
0(
#2000
b1111 $
1(
#2010
0(
#2020
b0 $
b11 #
1(
#2030
0(
#2040
b1 $
1(
#2050
0(
#2060
b10 $
1(
#2070
0(
#2080
b11 $
1(
#2090
0(
#2100
b100 $
1(
#2110
0(
#2120
b101 $
1(
#2130
0(
#2140
b110 $
1(
#2150
0(
#2160
b110 !
b110 *
1"
b111 $
1(
#2170
0(
#2180
0"
b1000 $
1(
#2190
0(
#2200
b1001 $
1(
#2210
0(
#2220
b1010 $
1(
#2230
0(
#2240
b1011 $
1(
#2250
0(
#2260
b1100 $
1(
#2270
0(
#2280
b1101 $
1(
#2290
0(
#2300
1%
b1110 $
1(
1)
#2310
0(
#2320
b1111 $
1(
#2330
0(
#2340
b0 $
b100 #
1(
#2350
0(
#2360
b1 $
1(
#2370
0(
#2380
b10 $
1(
#2390
0(
#2400
b11 $
1(
#2410
0(
#2420
b100 $
1(
#2430
0(
#2440
b101 $
1(
#2450
0(
#2460
b110 $
1(
#2470
0(
#2480
b1101 !
b1101 *
1"
b111 $
1(
#2490
0(
#2500
0"
b1000 $
1(
#2510
0(
#2520
b1001 $
1(
#2530
0(
#2540
b1010 $
1(
#2550
0(
#2560
b1011 $
1(
#2570
0(
#2580
b1100 $
1(
#2590
0(
#2600
b1101 $
1(
#2610
0(
#2620
0%
b1110 $
1(
0)
#2630
0(
#2640
b1111 $
1(
#2650
0(
#2660
b0 $
b101 #
1(
#2670
0(
#2680
b1 $
1(
#2690
0(
#2700
b10 $
1(
#2710
0(
#2720
b11 $
1(
#2730
0(
#2740
b100 $
1(
#2750
0(
#2760
b101 $
1(
#2770
0(
#2780
b110 $
1(
#2790
0(
#2800
b11010 !
b11010 *
1"
b111 $
1(
#2810
0(
#2820
0"
b1000 $
1(
#2830
0(
#2840
b1001 $
1(
#2850
0(
#2860
b1010 $
1(
#2870
0(
#2880
b1011 $
1(
#2890
0(
#2900
b1100 $
1(
#2910
0(
#2920
b1101 $
1(
#2930
0(
#2940
b1110 $
1(
#2950
0(
#2960
b1111 $
1(
#2970
0(
#2980
b0 $
b110 #
1(
#2990
0(
#3000
b1 $
1(
#3010
0(
#3020
b10 $
1(
#3030
0(
#3040
b11 $
1(
#3050
0(
#3060
b100 $
1(
#3070
0(
#3080
b101 $
1(
#3090
0(
#3100
b110 $
1(
#3110
0(
#3120
b110100 !
b110100 *
1"
b111 $
1(
#3130
0(
#3140
0"
b1000 $
1(
#3150
0(
#3160
b1001 $
1(
#3170
0(
#3180
b1010 $
1(
#3190
0(
#3200
b1011 $
1(
#3210
0(
#3220
b1100 $
1(
#3230
0(
#3240
b1101 $
1(
#3250
0(
#3260
1%
b1110 $
1(
1)
#3270
0(
#3280
b1111 $
1(
#3290
0(
#3300
b0 $
b111 #
1(
#3310
0(
#3320
b1 $
1(
#3330
0(
#3340
b10 $
1(
#3350
0(
#3360
b11 $
1(
#3370
0(
#3380
b100 $
1(
#3390
0(
#3400
b101 $
1(
#3410
0(
#3420
b110 $
1(
#3430
0(
#3440
b1101001 !
b1101001 *
1"
b111 $
1(
#3450
0(
#3460
0"
b1000 $
1(
#3470
0(
#3480
b1001 $
1(
#3490
0(
#3500
b1010 $
1(
#3510
0(
#3520
b1011 $
1(
#3530
0(
#3540
b1100 $
1(
#3550
0(
#3560
b1101 $
1(
#3570
0(
#3580
0%
b1110 $
1(
0)
#3590
0(
#3600
b1111 $
1(
#3610
0(
#3620
b0 $
b1000 #
1(
#3630
0(
#3640
b1 $
1(
#3650
0(
#3660
b10 $
1(
#3670
0(
#3680
b11 $
1(
#3690
0(
#3700
b100 $
1(
#3710
0(
#3720
b101 $
1(
#3730
0(
#3740
b110 $
1(
#3750
0(
#3760
b11010010 !
b11010010 *
1"
b111 $
1(
#3770
0(
#3780
0"
b1000 $
1(
#3790
0(
#3800
b1001 $
1(
#3810
0(
#3820
b1010 $
1(
#3830
0(
#3840
b1011 $
1(
#3850
0(
#3860
b1100 $
1(
#3870
0(
#3880
b1101 $
1(
#3890
0(
#3900
1%
b1110 $
1(
1)
#3910
0(
#3920
b1111 $
1(
#3930
0(
#3940
b0 $
b1001 #
1(
#3950
0(
#3960
b1 $
1(
#3970
0(
#3980
b10 $
1(
#3990
0(
#4000
b11 $
1(
#4010
0(
#4020
b100 $
1(
#4030
0(
#4040
b101 $
1(
#4050
0(
#4060
b110 $
1(
#4070
0(
#4080
b110100101 !
b110100101 *
1"
b111 $
1(
#4090
0(
#4100
1'
1&
0"
b1000 $
1(
#4110
0(
#4120
0'
0&
b1001 $
1(
#4130
0(
#4140
b1010 $
1(
#4150
0(
#4160
b1011 $
1(
#4170
0(
#4180
b1100 $
1(
#4190
0(
#4200
b1101 $
1(
#4210
0(
#4220
b1110 $
1(
#4230
0(
#4240
b1111 $
1(
#4250
0(
#4260
b0 $
b1010 #
1(
#4270
0(
#4280
0+
b1 $
1(
#4290
0(
#4300
b10 $
1(
#4310
0(
#4320
b0 $
b0 #
1(
