assignment_4/lab4/serial_com_code/tests/vvp/bitsamplecount.vcd
$date
	Tue Feb 16 13:39:50 2016
$end
$version
	Icarus Verilog
$end
$timescale
	1s
$end
$scope module testBench $end
$scope module bsc $end
$var wire 1 ! clk $end
$var wire 1 " rstBSC $end
$var wire 4 # counterOut [3:0] $end
$var reg 1 $ bic $end
$var reg 1 % srcc $end
$upscope $end
$upscope $end
$enddefinitions $end
#0
$dumpvars
x%
x$
b0 #
z"
0!
$end
#20
0%
0$
b1 #
1!
#60
0!
#80
b10 #
1!
#100
0!
#120
b11 #
1!
#140
0!
#160
b100 #
1!
#180
0!
#200
b101 #
1!
#220
0!
#240
b110 #
1!
#260
0!
#280
b111 #
1!
#300
0!
#320
1%
b1000 #
1!
#340
0!
#360
0%
b1001 #
1!
#380
0!
#400
b1010 #
1!
#420
0!
#440
b1011 #
1!
#460
0!
#480
b1100 #
1!
#500
0!
#520
b1101 #
1!
#540
0!
#560
b1110 #
1!
#580
0!
#600
b1111 #
1!
#620
0!
#640
1$
b0 #
1!
#660
0!
#680
0$
b1 #
1!
