assignment_4/lab4/serial_com_code/tests/vvp/serialoutput.vcd
$date
	Thu Feb 18 17:32:56 2016
$end
$version
	Icarus Verilog
$end
$timescale
	1s
$end
$scope module testBench $end
$scope module so $end
$var wire 1 ! clock $end
$var wire 8 " data [7:0] $end
$var wire 1 # load $end
$var wire 1 $ transmitEnable $end
$var wire 1 % srClock $end
$var wire 1 & serialOut $end
$var wire 4 ' identifer [3:0] $end
$var wire 4 ( counter4StopBit [3:0] $end
$var wire 4 ) counter4StartBit [3:0] $end
$var wire 1 * charSent $end
$var wire 1 + bicClock $end
$var reg 1 , transmitting $end
$var reg 1 - waitedABit $end
$var reg 1 . waitedABitStop $end
$upscope $end
$upscope $end
$enddefinitions $end
#0
$dumpvars
0.
0-
0,
0+
0*
b0 )
b0 (
b0 '
0&
0%
0$
0#
b1001101 "
0!
$end
#2
1!
#3
0!
#4
1!
#5
0!
#6
1!
#7
0!
#8
1!
#9
0!
#10
1!
#11
0!
#12
1!
#13
0!
#14
1!
#15
0!
#16
1!
#17
0!
#18
1!
#19
0!
#20
1!
#21
0!
#22
1!
#23
0!
#24
1!
#25
0!
#26
1!
#27
0!
#28
1!
#29
0!
#30
1!
#31
0!
#32
1!
#33
0!
#34
1!
#35
0!
#36
1!
#37
0!
#38
1!
#39
0!
#40
1&
1#
1!
#41
0!
#42
1!
#43
0!
#44
1-
1,
1$
0#
1!
#45
0!
#46
1!
#47
0!
#48
0$
1!
#49
0!
#50
b1 )
1!
#51
0!
#52
b10 )
1!
#53
0!
#54
b11 )
1!
#55
0!
#56
b100 )
1!
#57
0!
#58
b101 )
1!
#59
0!
#60
b110 )
1!
#61
0!
#62
b111 )
1!
#63
0!
#64
b1000 )
1!
#65
0!
#66
b1001 )
1!
#67
0!
#68
b1010 )
1!
#69
0!
#70
b1011 )
1!
#71
0!
#72
b1100 )
1!
#73
0!
#74
b1101 )
1!
#75
0!
#76
b1110 )
1!
#77
0!
#78
b1111 )
1!
#79
0!
#80
0-
b0 )
1!
#81
0!
#82
1!
#83
0!
#84
1!
#85
0!
#86
1!
#87
0!
#88
1!
#89
0!
#90
1!
#91
0!
#92
1!
#93
0!
#94
1!
#95
0!
#96
0&
1%
1!
#97
0!
#98
0%
1!
#99
0!
#100
1!
#101
0!
#102
1!
#103
0!
#104
1!
#105
0!
#106
1!
#107
0!
#108
1!
#109
0!
#110
1!
#111
0!
#112
b1 '
1+
1!
#113
0!
#114
0+
1!
#115
0!
#116
1!
#117
0!
#118
1!
#119
0!
#120
1!
#121
0!
#122
1!
#123
0!
#124
1!
#125
0!
#126
1!
#127
0!
#128
1&
1%
1!
#129
0!
#130
0%
1!
#131
0!
#132
1!
#133
0!
#134
1!
#135
0!
#136
1!
#137
0!
#138
1!
#139
0!
#140
1!
#141
0!
#142
1!
#143
0!
#144
b10 '
1+
1!
#145
0!
#146
0+
1!
#147
0!
#148
1!
#149
0!
#150
1!
#151
0!
#152
1!
#153
0!
#154
1!
#155
0!
#156
1!
#157
0!
#158
1!
#159
0!
#160
1%
1!
#161
0!
#162
0%
1!
#163
0!
#164
1!
#165
0!
#166
1!
#167
0!
#168
1!
#169
0!
#170
1!
#171
0!
#172
1!
#173
0!
#174
1!
#175
0!
#176
b11 '
1+
1!
#177
0!
#178
0+
1!
#179
0!
#180
1!
#181
0!
#182
1!
#183
0!
#184
1!
#185
0!
#186
1!
#187
0!
#188
1!
#189
0!
#190
1!
#191
0!
#192
0&
1%
1!
#193
0!
#194
0%
1!
#195
0!
#196
1!
#197
0!
#198
1!
#199
0!
#200
1!
#201
0!
#202
1!
#203
0!
#204
1!
#205
0!
#206
1!
#207
0!
#208
b100 '
1+
1!
#209
0!
#210
0+
1!
#211
0!
#212
1!
#213
0!
#214
1!
#215
0!
#216
1!
#217
0!
#218
1!
#219
0!
#220
1!
#221
0!
#222
1!
#223
0!
#224
1%
1!
#225
0!
#226
0%
1!
#227
0!
#228
1!
#229
0!
#230
1!
#231
0!
#232
1!
#233
0!
#234
1!
#235
0!
#236
1!
#237
0!
#238
1!
#239
0!
#240
b101 '
1+
1!
#241
0!
#242
0+
1!
#243
0!
#244
1!
#245
0!
#246
1!
#247
0!
#248
1!
#249
0!
#250
1!
#251
0!
#252
1!
#253
0!
#254
1!
#255
0!
#256
1&
1%
1!
#257
0!
#258
0%
1!
#259
0!
#260
1!
#261
0!
#262
1!
#263
0!
#264
1!
#265
0!
#266
1!
#267
0!
#268
1!
#269
0!
#270
1!
#271
0!
#272
b110 '
1+
1!
#273
0!
#274
0+
1!
#275
0!
#276
1!
#277
0!
#278
1!
#279
0!
#280
1!
#281
0!
#282
1!
#283
0!
#284
1!
#285
0!
#286
1!
#287
0!
#288
0&
1%
1!
#289
0!
#290
0%
1!
#291
0!
#292
1!
#293
0!
#294
1!
#295
0!
#296
1!
#297
0!
#298
1!
#299
0!
#300
1!
#301
0!
#302
1!
#303
0!
#304
b111 '
1+
1!
#305
0!
#306
0+
1!
#307
0!
#308
1!
#309
0!
#310
1!
#311
0!
#312
1!
#313
0!
#314
1!
#315
0!
#316
1!
#317
0!
#318
1!
#319
0!
#320
1%
1!
#321
0!
#322
0%
1!
#323
0!
#324
1!
#325
0!
#326
1!
#327
0!
#328
1!
#329
0!
#330
1!
#331
0!
#332
1!
#333
0!
#334
1!
#335
0!
#336
1*
b1000 '
0+
1!
#337
0!
#338
1.
1!
#339
0!
#340
b1 (
1!
#341
0!
#342
b10 (
1!
#343
0!
#344
b11 (
1!
#345
0!
#346
b100 (
1!
#347
0!
#348
b101 (
1!
#349
0!
#350
b110 (
1!
#351
0!
#352
b111 (
1!
#353
0!
#354
b1000 (
1!
#355
0!
#356
b1001 (
1!
#357
0!
#358
b1010 (
1!
#359
0!
#360
b1011 (
1!
#361
0!
#362
b1100 (
1!
#363
0!
#364
b1101 (
1!
#365
0!
#366
b1110 (
1!
#367
0!
#368
b1111 (
1!
#369
0!
#370
0*
b0 '
0,
1.
b0 (
1!
