assignment_4/lab4/serial_com_code/tests/vvp/shiftTransmit.vcd
$date
	Tue Feb 16 14:36:34 2016
$end
$version
	Icarus Verilog
$end
$timescale
	1s
$end
$scope module testBench $end
$scope module t $end
$var wire 1 ! SRclock $end
$var wire 8 " dataBus [7:0] $end
$var wire 1 # load $end
$var wire 1 $ dataOut $end
$var reg 8 % temp [7:0] $end
$upscope $end
$upscope $end
$enddefinitions $end
#0
$dumpvars
b0 %
0$
x#
b10011001 "
0!
$end
#20
1$
b10011001 %
1#
1!
#40
0#
0!
#60
0$
b1001100 %
1!
#80
0!
#100
b100110 %
1!
#120
0!
#140
1$
b10011 %
1!
#160
0!
#180
b1001 %
1!
#200
0!
#220
0$
b100 %
1!
#240
0!
#260
b10 %
1!
#280
0!
#300
1$
b1 %
1!
#320
0!
#340
0$
b0 %
1!
