assignment_4/lab4/serial_com_code/tests/vvp/sr_sample.vcd
$date
	Tue Feb 16 14:27:57 2016
$end
$version
	Icarus Verilog
$end
$timescale
	1s
$end
$scope module testBench $end
$scope module bsc $end
$var wire 1 ! clk $end
$var wire 1 " rstBSC $end
$var wire 4 # counterOut [3:0] $end
$var reg 1 $ bic $end
$var reg 1 % srcc $end
$upscope $end
$upscope $end
$scope module testBench $end
$scope module sr $end
$var wire 1 % SRclock $end
$var wire 8 & dataBus [7:0] $end
$var wire 1 ' dataIn $end
$var reg 8 ( temp [7:0] $end
$upscope $end
$upscope $end
$enddefinitions $end
#0
$dumpvars
b0 (
0'
b0 &
x%
x$
b0 #
z"
0!
$end
#20
0%
0$
b1 #
1!
#60
0!
#80
b10 #
1'
1!
#100
0!
#120
b11 #
1!
#140
0!
#160
b100 #
1!
#180
0!
#200
b101 #
1!
#220
0!
#240
b110 #
1!
#260
0!
#280
b111 #
1!
#300
0!
#320
1%
b1000 #
0'
1!
#340
0!
#360
0%
b1001 #
1'
1!
#380
0!
#400
b1010 #
1!
#420
0!
#440
b1011 #
0'
1!
#460
0!
#480
b1100 #
1'
1!
#500
0!
#520
b1101 #
1!
#540
0!
#560
b1110 #
0'
1!
#580
0!
#600
b1111 #
1'
1!
#620
0!
#640
1$
b0 #
0'
1!
#660
0!
#680
0$
b1 #
1'
1!
#700
0!
#720
b10 #
0'
1!
#740
0!
#760
b11 #
1'
1!
#780
0!
#800
b100 #
1!
#820
0!
#840
b101 #
0'
1!
#860
0!
#880
b110 #
1'
1!
#900
0!
#920
b111 #
0'
1!
#940
0!
#960
1%
b1000 #
1!
#980
0!
#1000
0%
b1001 #
1!
#1020
0!
#1040
b1010 #
1'
1!
#1060
0!
#1080
b1011 #
0'
1!
#1100
0!
#1120
b1100 #
1'
1!
#1140
0!
#1160
b1101 #
1!
#1180
0!
#1200
b1110 #
1!
#1220
0!
#1240
b1111 #
1!
#1260
0!
#1280
1$
b0 #
0'
1!
#1300
0!
#1320
0$
b1 #
1!
#1340
0!
#1360
b10 #
1!
#1380
0!
#1400
b11 #
1!
#1420
0!
#1440
b100 #
1'
1!
#1460
0!
#1480
b101 #
0'
1!
#1500
0!
#1520
b110 #
1'
1!
#1540
0!
#1560
b111 #
1!
#1580
0!
#1600
b1 &
b1 (
1%
b1000 #
1!
#1620
0!
#1640
0%
b1001 #
1!
#1660
0!
#1680
b1010 #
1!
#1700
0!
#1720
b1011 #
0'
1!
#1740
0!
#1760
b1100 #
1!
#1780
0!
#1800
b1101 #
1'
1!
#1820
0!
#1840
b1110 #
1!
#1860
0!
#1880
b1111 #
1!
#1900
0!
#1920
1$
b0 #
0'
1!
#1940
0!
#1960
0$
b1 #
1!
#1980
0!
#2000
b10 #
1!
#2020
0!
#2040
b11 #
1!
#2060
0!
#2080
b100 #
1!
#2100
0!
#2120
b101 #
1'
1!
#2140
0!
#2160
b110 #
0'
1!
#2180
0!
#2200
b111 #
1!
#2220
0!
#2240
b11 &
b11 (
1%
b1000 #
1'
1!
#2260
0!
#2280
0%
b1001 #
1!
#2300
0!
#2320
b1010 #
0'
1!
#2340
0!
#2360
b1011 #
1!
#2380
0!
#2400
b1100 #
1!
#2420
0!
#2440
b1101 #
1!
#2460
0!
#2480
b1110 #
1!
#2500
0!
#2520
b1111 #
1'
1!
#2540
0!
#2560
1$
b0 #
1!
#2580
0!
#2600
0$
b1 #
1!
#2620
0!
#2640
b10 #
1!
#2660
0!
#2680
b11 #
1!
#2700
0!
#2720
b100 #
0'
1!
#2740
0!
#2760
b101 #
1!
#2780
0!
#2800
b110 #
1'
1!
#2820
0!
#2840
b111 #
1!
#2860
0!
#2880
b111 &
b111 (
1%
b1000 #
1!
#2900
0!
#2920
0%
b1001 #
0'
1!
#2940
0!
#2960
b1010 #
1!
#2980
0!
#3000
b1011 #
1'
1!
#3020
0!
#3040
b1100 #
1!
#3060
0!
#3080
b1101 #
0'
1!
#3100
0!
#3120
b1110 #
1'
1!
#3140
0!
#3160
b1111 #
1!
#3180
0!
#3200
1$
b0 #
0'
1!
#3220
0!
#3240
0$
b1 #
1'
1!
#3260
0!
#3280
b10 #
1!
#3300
0!
#3320
b11 #
1!
#3340
0!
#3360
b100 #
0'
1!
#3380
0!
#3400
b101 #
1'
1!
#3420
0!
#3440
b110 #
1!
#3460
0!
#3480
b111 #
0'
1!
#3500
0!
#3520
b1110 &
b1110 (
1%
b1000 #
1!
#3540
0!
#3560
0%
b1001 #
1!
#3580
0!
#3600
b1010 #
1!
#3620
0!
#3640
b1011 #
1'
1!
#3660
0!
#3680
b1100 #
1!
#3700
0!
#3720
b1101 #
0'
1!
#3740
0!
#3760
b1110 #
1!
#3780
0!
#3800
b1111 #
1'
1!
#3820
0!
#3840
1$
b0 #
1!
#3860
0!
#3880
0$
b1 #
1!
#3900
0!
#3920
b10 #
1!
#3940
0!
#3960
b11 #
1!
#3980
0!
#4000
b100 #
0'
1!
#4020
0!
#4040
b101 #
1'
1!
#4060
0!
#4080
b110 #
1!
#4100
0!
#4120
b111 #
1!
#4140
0!
#4160
b11100 &
b11100 (
1%
b1000 #
0'
1!
#4180
0!
#4200
0%
b1001 #
1!
#4220
0!
#4240
b1010 #
1!
#4260
0!
#4280
b1011 #
1!
#4300
0!
#4320
b1100 #
1!
#4340
0!
#4360
b1101 #
1!
#4380
0!
#4400
b1110 #
1!
#4420
0!
#4440
b1111 #
1'
1!
#4460
0!
#4480
1$
b0 #
1!
#4500
0!
#4520
0$
b1 #
1!
#4540
0!
#4560
b10 #
1!
#4580
0!
#4600
b11 #
1!
#4620
0!
#4640
b100 #
0'
1!
#4660
0!
#4680
b101 #
1'
1!
#4700
0!
#4720
b110 #
1!
#4740
0!
#4760
b111 #
0'
1!
#4780
0!
#4800
b111000 &
b111000 (
1%
b1000 #
1!
#4820
0!
#4840
0%
b1001 #
1'
1!
#4860
0!
#4880
b1010 #
1!
#4900
0!
#4920
b1011 #
0'
1!
#4940
0!
#4960
b1100 #
1'
1!
#4980
0!
#5000
b1101 #
1!
#5020
0!
#5040
b1110 #
1!
#5060
0!
#5080
b1111 #
1!
#5100
0!
#5120
1$
b0 #
0'
1!
#5140
0!
#5160
0$
b1 #
1!
#5180
0!
#5200
b10 #
1!
#5220
0!
#5240
b11 #
1'
1!
#5260
0!
#5280
b100 #
0'
1!
#5300
0!
#5320
b101 #
1!
#5340
0!
#5360
b110 #
1!
#5380
0!
#5400
b111 #
1'
1!
#5420
0!
#5440
b1110001 &
b1110001 (
1%
b1000 #
1!
#5460
0!
#5480
0%
b1001 #
0'
1!
#5500
0!
#5520
b1010 #
1!
#5540
0!
#5560
b1011 #
1'
1!
#5580
0!
#5600
b1100 #
0'
1!
#5620
0!
#5640
b1101 #
1!
#5660
0!
#5680
b1110 #
1!
#5700
0!
#5720
b1111 #
1'
1!
#5740
0!
#5760
1$
b0 #
0'
1!
#5780
0!
#5800
0$
b1 #
1!
#5820
0!
#5840
b10 #
1'
1!
#5860
0!
#5880
b11 #
0'
1!
#5900
0!
#5920
b100 #
1'
1!
#5940
0!
#5960
b101 #
1!
#5980
0!
#6000
b110 #
1!
#6020
0!
#6040
b111 #
1!
#6060
0!
#6080
b11100011 &
b11100011 (
1%
b1000 #
1!
#6100
0!
#6120
0%
b1001 #
0'
1!
#6140
0!
#6160
b1010 #
1!
#6180
0!
#6200
b1011 #
1!
#6220
0!
#6240
b1100 #
1'
1!
#6260
0!
#6280
b1101 #
0'
1!
#6300
0!
#6320
b1110 #
1!
#6340
0!
#6360
b1111 #
1'
1!
#6380
0!
#6400
1$
b0 #
1!
#6420
0!
#6440
0$
b1 #
0'
1!
#6460
0!
#6480
b10 #
1!
#6500
0!
#6520
b11 #
1!
#6540
0!
#6560
b100 #
1'
1!
#6580
0!
#6600
b101 #
1!
#6620
0!
#6640
b110 #
0'
1!
#6660
0!
#6680
b111 #
1!
#6700
0!
#6720
b11000110 &
b11000110 (
1%
b1000 #
1!
#6740
0!
#6760
0%
b1001 #
1'
1!
#6780
0!
#6800
b1010 #
1!
#6820
0!
#6840
b1011 #
0'
1!
#6860
0!
#6880
b1100 #
1!
#6900
0!
#6920
b1101 #
1!
#6940
0!
#6960
b1110 #
1'
1!
#6980
0!
#7000
b1111 #
0'
1!
#7020
0!
#7040
1$
b0 #
1!
#7060
0!
#7080
0$
b1 #
1'
1!
#7100
0!
#7120
b10 #
0'
1!
#7140
0!
#7160
b11 #
1!
#7180
0!
#7200
b100 #
1!
#7220
0!
#7240
b101 #
1'
1!
#7260
0!
#7280
b110 #
0'
1!
#7300
0!
#7320
b111 #
1'
1!
#7340
0!
#7360
b10001101 &
b10001101 (
1%
b1000 #
1!
#7380
0!
#7400
0%
b1001 #
0'
1!
#7420
0!
#7440
b1010 #
1!
#7460
0!
#7480
b1011 #
1!
#7500
0!
#7520
b1100 #
1!
#7540
0!
#7560
b1101 #
1'
1!
#7580
0!
#7600
b1110 #
0'
1!
#7620
0!
#7640
b1111 #
1!
#7660
0!
#7680
1$
b0 #
1!
#7700
0!
#7720
0$
b1 #
1!
#7740
0!
#7760
b10 #
1'
1!
#7780
0!
#7800
b11 #
1!
#7820
0!
#7840
b100 #
1!
#7860
0!
#7880
b101 #
0'
1!
#7900
0!
#7920
b110 #
1'
1!
#7940
0!
#7960
b111 #
1!
#7980
0!
#8000
b11011 &
b11011 (
1%
b1000 #
1!
#8020
0!
#8040
0%
b1001 #
0'
1!
#8060
0!
#8080
b1010 #
1!
#8100
0!
#8120
b1011 #
1'
1!
#8140
0!
#8160
b1100 #
1!
#8180
0!
#8200
b1101 #
1!
#8220
0!
#8240
b1110 #
1!
#8260
0!
#8280
b1111 #
1!
#8300
0!
#8320
1$
b0 #
0'
1!
#8340
0!
#8360
0$
b1 #
1'
1!
#8380
0!
#8400
b10 #
1!
#8420
0!
#8440
b11 #
0'
1!
#8460
0!
#8480
b100 #
1!
#8500
0!
#8520
b101 #
1!
#8540
0!
#8560
b110 #
1!
#8580
0!
#8600
b111 #
1'
1!
#8620
0!
#8640
b110111 &
b110111 (
1%
b1000 #
1!
#8660
0!
#8680
0%
b1001 #
0'
1!
#8700
0!
#8720
b1010 #
1!
#8740
0!
#8760
b1011 #
1'
1!
#8780
0!
#8800
b1100 #
0'
1!
#8820
0!
#8840
b1101 #
1!
#8860
0!
#8880
b1110 #
1'
1!
#8900
0!
#8920
b1111 #
0'
1!
#8940
0!
#8960
1$
b0 #
1!
#8980
0!
#9000
0$
b1 #
1'
1!
#9020
0!
#9040
b10 #
0'
1!
#9060
0!
#9080
b11 #
1!
#9100
0!
#9120
b100 #
1'
1!
#9140
0!
#9160
b101 #
1!
#9180
0!
#9200
b110 #
1!
#9220
0!
#9240
b111 #
0'
1!
#9260
0!
#9280
b1101110 &
b1101110 (
1%
b1000 #
1!
#9300
0!
#9320
0%
b1001 #
1!
#9340
0!
#9360
b1010 #
1'
1!
#9380
0!
#9400
b1011 #
0'
1!
#9420
0!
#9440
b1100 #
1!
#9460
0!
#9480
b1101 #
1'
1!
#9500
0!
#9520
b1110 #
0'
1!
#9540
0!
#9560
b1111 #
1!
#9580
0!
#9600
1$
b0 #
1!
#9620
0!
#9640
0$
b1 #
1!
#9660
0!
#9680
b10 #
1'
1!
#9700
0!
#9720
b11 #
0'
1!
#9740
0!
#9760
b100 #
1!
#9780
0!
#9800
b101 #
1!
#9820
0!
#9840
b110 #
1'
1!
#9860
0!
#9880
b111 #
1!
#9900
0!
#9920
b11011100 &
b11011100 (
1%
b1000 #
0'
1!
#9940
0!
#9960
0%
b1001 #
1'
1!
#9980
0!
#10000
b1010 #
1!
#10020
0!
#10040
b1011 #
1!
#10060
0!
#10080
b1100 #
1!
#10100
0!
#10120
b1101 #
0'
1!
#10140
0!
#10160
b1110 #
1'
1!
#10180
0!
#10200
b1111 #
1!
#10220
0!
#10240
1$
b0 #
1!
#10260
0!
#10280
0$
b1 #
0'
1!
#10300
0!
#10320
b10 #
1!
#10340
0!
#10360
b11 #
1'
1!
#10380
0!
#10400
b100 #
0'
1!
#10420
0!
#10440
b101 #
1!
#10460
0!
#10480
b110 #
1'
1!
#10500
0!
#10520
b111 #
1!
#10540
0!
#10560
b10111000 &
b10111000 (
1%
b1000 #
0'
1!
#10580
0!
#10600
0%
b1001 #
1!
#10620
0!
#10640
b1010 #
1'
1!
#10660
0!
#10680
b1011 #
0'
1!
#10700
0!
#10720
b1100 #
1!
#10740
0!
#10760
b1101 #
1'
1!
#10780
0!
#10800
b1110 #
0'
1!
#10820
0!
#10840
b1111 #
1'
1!
#10860
0!
#10880
1$
b0 #
1!
#10900
0!
#10920
0$
b1 #
0'
1!
#10940
0!
#10960
b10 #
1'
1!
#10980
0!
#11000
b11 #
0'
1!
#11020
0!
#11040
b100 #
1'
1!
#11060
0!
#11080
b101 #
0'
1!
#11100
0!
#11120
b110 #
1!
#11140
0!
#11160
b111 #
1'
1!
#11180
0!
#11200
b1110000 &
b1110000 (
1%
b1000 #
0'
1!
#11220
0!
#11240
0%
b1001 #
1!
#11260
0!
#11280
b1010 #
1!
#11300
0!
#11320
b1011 #
1'
1!
#11340
0!
#11360
b1100 #
1!
#11380
0!
#11400
b1101 #
1!
#11420
0!
#11440
b1110 #
1!
#11460
0!
#11480
b1111 #
1!
#11500
0!
#11520
1$
b0 #
0'
1!
#11540
0!
#11560
0$
b1 #
1'
1!
#11580
0!
#11600
b10 #
1!
#11620
0!
#11640
b11 #
1!
#11660
0!
#11680
b100 #
0'
1!
#11700
0!
#11720
b101 #
1!
#11740
0!
#11760
b110 #
1!
#11780
0!
#11800
b111 #
1!
#11820
0!
#11840
b11100000 &
b11100000 (
1%
b1000 #
1!
#11860
0!
#11880
0%
b1001 #
1!
#11900
0!
#11920
b1010 #
1'
1!
#11940
0!
#11960
b1011 #
1!
#11980
0!
#12000
b1100 #
1!
#12020
0!
#12040
b1101 #
1!
#12060
0!
#12080
b1110 #
1!
#12100
0!
#12120
b1111 #
1!
#12140
0!
#12160
1$
b0 #
1!
#12180
0!
#12200
0$
b1 #
0'
1!
#12220
0!
#12240
b10 #
1'
1!
#12260
0!
#12280
b11 #
1!
#12300
0!
#12320
b100 #
1!
#12340
0!
#12360
b101 #
1!
#12380
0!
#12400
b110 #
1!
#12420
0!
#12440
b111 #
1!
#12460
0!
#12480
b11000001 &
b11000001 (
1%
b1000 #
1!
#12500
0!
#12520
0%
b1001 #
1!
#12540
0!
#12560
b1010 #
0'
1!
#12580
0!
#12600
b1011 #
1!
#12620
0!
#12640
b1100 #
1'
1!
#12660
0!
#12680
b1101 #
1!
#12700
0!
#12720
b1110 #
0'
1!
#12740
0!
#12760
b1111 #
1!
#12780
0!
#12800
1$
b0 #
1!
#12820
0!
#12840
0$
b1 #
1!
#12860
0!
#12880
b10 #
1'
1!
#12900
0!
#12920
b11 #
0'
1!
#12940
0!
#12960
b100 #
1!
#12980
0!
#13000
b101 #
1!
#13020
0!
#13040
b110 #
1!
#13060
0!
#13080
b111 #
1!
#13100
0!
#13120
b10000010 &
b10000010 (
1%
b1000 #
1!
#13140
0!
#13160
0%
b1001 #
1'
1!
#13180
0!
#13200
b1010 #
0'
1!
#13220
0!
#13240
b1011 #
1!
#13260
0!
#13280
b1100 #
1'
1!
#13300
0!
#13320
b1101 #
0'
1!
#13340
0!
#13360
b1110 #
1!
#13380
0!
#13400
b1111 #
1!
#13420
0!
#13440
1$
b0 #
1!
#13460
0!
#13480
0$
b1 #
1'
1!
#13500
0!
#13520
b10 #
1!
#13540
0!
#13560
b11 #
1!
#13580
0!
#13600
b100 #
1!
#13620
0!
#13640
b101 #
1!
#13660
0!
#13680
b110 #
0'
1!
#13700
0!
#13720
b111 #
1'
1!
#13740
0!
#13760
b101 &
b101 (
1%
b1000 #
1!
#13780
0!
#13800
0%
b1001 #
1!
#13820
0!
#13840
b1010 #
0'
1!
#13860
0!
#13880
b1011 #
1'
1!
#13900
0!
#13920
b1100 #
0'
1!
#13940
0!
#13960
b1101 #
1!
#13980
0!
#14000
b1110 #
1'
1!
#14020
0!
#14040
b1111 #
1!
#14060
0!
#14080
1$
b0 #
0'
1!
#14100
0!
#14120
0$
b1 #
1'
1!
#14140
0!
#14160
b10 #
0'
1!
#14180
0!
#14200
b11 #
1!
#14220
0!
#14240
b100 #
1'
1!
#14260
0!
#14280
b101 #
0'
1!
#14300
0!
#14320
b110 #
1!
#14340
0!
#14360
b111 #
1!
#14380
0!
#14400
b1010 &
b1010 (
1%
b1000 #
1!
#14420
0!
#14440
0%
b1001 #
1'
1!
#14460
0!
#14480
b1010 #
1!
#14500
0!
#14520
b1011 #
1!
#14540
0!
#14560
b1100 #
1!
#14580
0!
#14600
b1101 #
0'
1!
#14620
0!
#14640
b1110 #
1'
1!
#14660
0!
#14680
b1111 #
1!
#14700
0!
#14720
1$
b0 #
1!
#14740
0!
#14760
0$
b1 #
1!
#14780
0!
#14800
b10 #
1!
#14820
0!
#14840
b11 #
1!
#14860
0!
#14880
b100 #
1!
#14900
0!
#14920
b101 #
0'
1!
#14940
0!
#14960
b110 #
1'
1!
#14980
0!
#15000
b111 #
0'
1!
#15020
0!
#15040
b10101 &
b10101 (
1%
b1000 #
1'
1!
#15060
0!
#15080
0%
b1001 #
0'
1!
#15100
0!
#15120
b1010 #
1!
#15140
0!
#15160
b1011 #
1'
1!
#15180
0!
#15200
b1100 #
0'
1!
#15220
0!
#15240
b1101 #
1!
#15260
0!
#15280
b1110 #
1!
#15300
0!
#15320
b1111 #
1!
#15340
0!
#15360
1$
b0 #
1!
#15380
0!
#15400
0$
b1 #
1'
1!
#15420
0!
#15440
b10 #
0'
1!
#15460
0!
#15480
b11 #
1!
#15500
0!
#15520
b100 #
1!
#15540
0!
#15560
b101 #
1!
#15580
0!
#15600
b110 #
1!
#15620
0!
#15640
b111 #
1!
#15660
0!
#15680
b101011 &
b101011 (
1%
b1000 #
1'
1!
#15700
0!
#15720
0%
b1001 #
0'
1!
#15740
0!
#15760
b1010 #
1'
1!
#15780
0!
#15800
b1011 #
0'
1!
#15820
0!
#15840
b1100 #
1!
#15860
0!
#15880
b1101 #
1'
1!
#15900
0!
#15920
b1110 #
0'
1!
#15940
0!
#15960
b1111 #
1'
1!
#15980
0!
#16000
1$
b0 #
1!
#16020
0!
#16040
0$
b1 #
0'
1!
#16060
0!
#16080
b10 #
1'
1!
#16100
0!
#16120
b11 #
0'
1!
#16140
0!
#16160
b100 #
1'
1!
#16180
0!
#16200
b101 #
0'
1!
#16220
0!
#16240
b110 #
1!
#16260
0!
#16280
b111 #
1!
#16300
0!
#16320
b1010110 &
b1010110 (
1%
b1000 #
1!
#16340
0!
#16360
0%
b1001 #
1'
1!
#16380
0!
#16400
b1010 #
0'
1!
#16420
0!
#16440
b1011 #
1'
1!
#16460
0!
#16480
b1100 #
0'
1!
#16500
0!
#16520
b1101 #
1'
1!
#16540
0!
#16560
b1110 #
1!
#16580
0!
#16600
b1111 #
0'
1!
#16620
0!
#16640
1$
b0 #
1'
1!
#16660
0!
#16680
0$
b1 #
0'
1!
#16700
0!
#16720
b10 #
1'
1!
#16740
0!
#16760
b11 #
1!
#16780
0!
#16800
b100 #
1!
#16820
0!
#16840
b101 #
0'
1!
#16860
0!
#16880
b110 #
1'
1!
#16900
0!
#16920
b111 #
1!
#16940
0!
#16960
b10101100 &
b10101100 (
1%
b1000 #
0'
1!
#16980
0!
#17000
0%
b1001 #
1!
#17020
0!
#17040
b1010 #
1'
1!
#17060
0!
#17080
b1011 #
1!
#17100
0!
#17120
b1100 #
0'
1!
#17140
0!
#17160
b1101 #
1!
#17180
0!
#17200
b1110 #
1'
1!
#17220
0!
#17240
b1111 #
1!
#17260
0!
#17280
1$
b0 #
0'
1!
#17300
0!
#17320
0$
b1 #
1!
#17340
0!
#17360
b10 #
1'
1!
#17380
0!
#17400
b11 #
0'
1!
#17420
0!
#17440
b100 #
1!
#17460
0!
#17480
b101 #
1'
1!
#17500
0!
#17520
b110 #
1!
#17540
0!
#17560
b111 #
0'
1!
#17580
0!
#17600
b1011000 &
b1011000 (
1%
b1000 #
1!
#17620
0!
#17640
0%
b1001 #
1'
1!
#17660
0!
#17680
b1010 #
0'
1!
#17700
0!
#17720
b1011 #
1!
#17740
0!
#17760
b1100 #
1'
1!
#17780
0!
#17800
b1101 #
1!
#17820
0!
#17840
b1110 #
0'
1!
#17860
0!
#17880
b1111 #
1'
1!
#17900
0!
#17920
1$
b0 #
0'
1!
#17940
0!
#17960
0$
b1 #
1'
1!
#17980
0!
#18000
b10 #
1!
#18020
0!
#18040
b11 #
0'
1!
#18060
0!
#18080
b100 #
1'
1!
#18100
0!
#18120
b101 #
1!
#18140
0!
#18160
b110 #
1!
#18180
0!
#18200
b111 #
0'
1!
#18220
0!
#18240
b10110001 &
b10110001 (
1%
b1000 #
1'
1!
#18260
0!
#18280
0%
b1001 #
1!
#18300
0!
#18320
b1010 #
1!
#18340
0!
#18360
b1011 #
0'
1!
#18380
0!
#18400
b1100 #
1!
#18420
0!
#18440
b1101 #
1'
1!
#18460
0!
#18480
b1110 #
0'
1!
#18500
0!
#18520
b1111 #
1!
#18540
0!
#18560
1$
b0 #
1'
1!
#18580
0!
#18600
0$
b1 #
0'
1!
#18620
0!
#18640
b10 #
1!
#18660
0!
#18680
b11 #
1'
1!
#18700
0!
#18720
b100 #
1!
#18740
0!
#18760
b101 #
0'
1!
#18780
0!
#18800
b110 #
1'
1!
#18820
0!
#18840
b111 #
0'
1!
#18860
0!
#18880
b1100011 &
b1100011 (
1%
b1000 #
1'
1!
#18900
0!
#18920
0%
b1001 #
1!
#18940
0!
#18960
b1010 #
1!
#18980
0!
#19000
b1011 #
1!
#19020
0!
#19040
b1100 #
0'
1!
#19060
0!
#19080
b1101 #
1!
#19100
0!
#19120
b1110 #
1'
1!
#19140
0!
#19160
b1111 #
0'
1!
#19180
0!
#19200
1$
b0 #
1'
1!
#19220
0!
#19240
0$
b1 #
0'
1!
#19260
0!
#19280
b10 #
1'
1!
#19300
0!
#19320
b11 #
1!
#19340
0!
#19360
b100 #
0'
1!
#19380
0!
#19400
b101 #
1!
#19420
0!
#19440
b110 #
1'
1!
#19460
0!
#19480
b111 #
1!
#19500
0!
#19520
b11000111 &
b11000111 (
1%
b1000 #
1!
#19540
0!
#19560
0%
b1001 #
0'
1!
#19580
0!
#19600
b1010 #
1!
#19620
0!
#19640
b1011 #
1'
1!
#19660
0!
#19680
b1100 #
0'
1!
#19700
0!
#19720
b1101 #
1!
#19740
0!
#19760
b1110 #
1'
1!
#19780
0!
#19800
b1111 #
1!
#19820
0!
#19840
1$
b0 #
1!
#19860
0!
#19880
0$
b1 #
0'
1!
#19900
0!
#19920
b10 #
1'
1!
#19940
0!
#19960
b11 #
1!
#19980
0!
#20000
b100 #
0'
1!
#20020
0!
#20040
b101 #
1!
#20060
0!
#20080
b110 #
1!
#20100
0!
#20120
b111 #
1'
1!
#20140
0!
#20160
b10001111 &
b10001111 (
1%
b1000 #
1!
#20180
0!
#20200
0%
b1001 #
1!
#20220
0!
#20240
b1010 #
0'
1!
#20260
0!
#20280
b1011 #
1!
#20300
0!
#20320
b1100 #
1!
#20340
0!
#20360
b1101 #
1'
1!
#20380
0!
#20400
b1110 #
1!
#20420
0!
#20440
b1111 #
1!
#20460
0!
#20480
1$
b0 #
1!
#20500
0!
#20520
0$
b1 #
0'
1!
#20540
0!
#20560
b10 #
1'
1!
#20580
0!
#20600
b11 #
1!
#20620
0!
#20640
b100 #
1!
#20660
0!
#20680
b101 #
1!
#20700
0!
#20720
b110 #
1!
#20740
0!
#20760
b111 #
1!
#20780
0!
#20800
b11111 &
b11111 (
1%
b1000 #
1!
#20820
0!
#20840
0%
b1001 #
0'
1!
#20860
0!
#20880
b1010 #
1'
1!
#20900
0!
#20920
b1011 #
0'
1!
#20940
0!
#20960
b1100 #
1!
#20980
0!
#21000
b1101 #
1!
#21020
0!
#21040
b1110 #
1'
1!
#21060
0!
#21080
b1111 #
1!
#21100
0!
#21120
1$
b0 #
1!
#21140
0!
#21160
0$
b1 #
1!
#21180
0!
#21200
b10 #
1!
#21220
0!
#21240
b11 #
1!
#21260
0!
#21280
b100 #
1!
#21300
0!
#21320
b101 #
1!
#21340
0!
#21360
b110 #
1!
#21380
0!
#21400
b111 #
0'
1!
#21420
0!
#21440
b111110 &
b111110 (
1%
b1000 #
1!
#21460
0!
#21480
0%
b1001 #
1!
#21500
0!
#21520
b1010 #
1'
1!
#21540
0!
#21560
b1011 #
0'
1!
#21580
0!
#21600
b1100 #
1!
#21620
0!
#21640
b1101 #
1!
#21660
0!
#21680
b1110 #
1'
1!
#21700
0!
#21720
b1111 #
1!
#21740
0!
#21760
1$
b0 #
0'
1!
#21780
0!
#21800
0$
b1 #
1!
#21820
0!
#21840
b10 #
1!
#21860
0!
#21880
b11 #
1'
1!
#21900
0!
#21920
b100 #
1!
#21940
0!
#21960
b101 #
0'
1!
#21980
0!
#22000
b110 #
1'
1!
#22020
0!
#22040
b111 #
0'
1!
#22060
0!
#22080
b1111101 &
b1111101 (
1%
b1000 #
1'
1!
#22100
0!
#22120
0%
b1001 #
0'
1!
#22140
0!
#22160
b1010 #
1!
#22180
0!
#22200
b1011 #
1!
#22220
0!
#22240
b1100 #
1'
1!
#22260
0!
#22280
b1101 #
1!
#22300
0!
#22320
b1110 #
1!
#22340
0!
#22360
b1111 #
0'
1!
#22380
0!
#22400
1$
b0 #
1'
1!
#22420
0!
#22440
0$
b1 #
0'
1!
#22460
0!
#22480
b10 #
1'
1!
#22500
0!
#22520
b11 #
0'
1!
#22540
0!
#22560
b100 #
1'
1!
#22580
0!
#22600
b101 #
1!
#22620
0!
#22640
b110 #
0'
1!
#22660
0!
#22680
b111 #
1!
#22700
0!
#22720
b11111010 &
b11111010 (
1%
b1000 #
1!
#22740
0!
#22760
0%
b1001 #
1!
#22780
0!
#22800
b1010 #
1'
1!
#22820
0!
#22840
b1011 #
1!
#22860
0!
#22880
b1100 #
0'
1!
#22900
0!
#22920
b1101 #
1!
#22940
0!
#22960
b1110 #
1'
1!
#22980
0!
#23000
b1111 #
0'
1!
#23020
0!
#23040
1$
b0 #
1'
1!
#23060
0!
#23080
0$
b1 #
0'
1!
#23100
0!
#23120
b10 #
1'
1!
#23140
0!
#23160
b11 #
1!
#23180
0!
#23200
b100 #
0'
1!
#23220
0!
#23240
b101 #
1'
1!
#23260
0!
#23280
b110 #
1!
#23300
0!
#23320
b111 #
0'
1!
#23340
0!
#23360
b11110100 &
b11110100 (
1%
b1000 #
1!
#23380
0!
#23400
0%
b1001 #
1!
#23420
0!
#23440
b1010 #
1!
#23460
0!
#23480
b1011 #
1'
1!
#23500
0!
#23520
b1100 #
1!
#23540
0!
#23560
b1101 #
1!
#23580
0!
#23600
b1110 #
1!
#23620
0!
#23640
b1111 #
1!
#23660
0!
#23680
1$
b0 #
0'
1!
#23700
0!
#23720
0$
b1 #
1!
#23740
0!
#23760
b10 #
1!
#23780
0!
#23800
b11 #
1!
#23820
0!
#23840
b100 #
1!
#23860
0!
#23880
b101 #
1!
#23900
0!
#23920
b110 #
1!
#23940
0!
#23960
b111 #
1'
1!
#23980
0!
#24000
b11101001 &
b11101001 (
1%
b1000 #
1!
#24020
0!
#24040
0%
b1001 #
1!
#24060
0!
#24080
b1010 #
1!
#24100
0!
#24120
b1011 #
1!
#24140
0!
#24160
b1100 #
1!
#24180
0!
#24200
b1101 #
1!
#24220
0!
#24240
b1110 #
0'
1!
#24260
0!
#24280
b1111 #
1!
#24300
0!
#24320
1$
b0 #
1!
#24340
0!
#24360
0$
b1 #
1!
#24380
0!
#24400
b10 #
1!
#24420
0!
#24440
b11 #
1!
#24460
0!
#24480
b100 #
1'
1!
#24500
0!
#24520
b101 #
1!
#24540
0!
#24560
b110 #
0'
1!
#24580
0!
#24600
b111 #
1'
1!
#24620
0!
#24640
b11010010 &
b11010010 (
1%
b1000 #
0'
1!
#24660
0!
#24680
0%
b1001 #
1'
1!
#24700
0!
#24720
b1010 #
1!
#24740
0!
#24760
b1011 #
1!
#24780
0!
#24800
b1100 #
0'
1!
#24820
0!
#24840
b1101 #
1!
#24860
0!
#24880
b1110 #
1!
#24900
0!
#24920
b1111 #
1'
1!
#24940
0!
#24960
1$
b0 #
1!
#24980
0!
#25000
0$
b1 #
0'
1!
#25020
0!
#25040
b10 #
1'
1!
#25060
0!
#25080
b11 #
0'
1!
#25100
0!
#25120
b100 #
1!
#25140
0!
#25160
b101 #
1!
#25180
0!
#25200
b110 #
1!
#25220
0!
#25240
b111 #
1!
#25260
0!
#25280
b10100100 &
b10100100 (
1%
b1000 #
1!
#25300
0!
#25320
0%
b1001 #
1'
1!
#25340
0!
#25360
b1010 #
0'
1!
#25380
0!
#25400
b1011 #
1!
#25420
0!
#25440
b1100 #
1'
1!
#25460
0!
#25480
b1101 #
0'
1!
#25500
0!
#25520
b1110 #
1!
#25540
0!
#25560
b1111 #
1'
1!
#25580
0!
#25600
1$
b0 #
1!
#25620
0!
#25640
0$
b1 #
1!
#25660
0!
#25680
b10 #
0'
1!
#25700
0!
#25720
b11 #
1!
#25740
0!
#25760
b100 #
1'
1!
#25780
0!
#25800
b101 #
1!
#25820
0!
#25840
b110 #
1!
#25860
0!
#25880
b111 #
1!
#25900
0!
#25920
b1001000 &
b1001000 (
1%
b1000 #
0'
1!
#25940
0!
#25960
0%
b1001 #
1'
1!
#25980
0!
#26000
b1010 #
1!
#26020
0!
#26040
b1011 #
1!
#26060
0!
#26080
b1100 #
1!
#26100
0!
#26120
b1101 #
0'
1!
#26140
0!
#26160
b1110 #
1'
1!
#26180
0!
#26200
b1111 #
0'
1!
#26220
0!
