assignment_2/iVerilog/innerDoor.vcd
$date
	Thu Jan 28 22:40:28 2016
$end
$version
	Icarus Verilog
$end
$timescale
	1s
$end
$scope module testBench $end
$scope module iDoor $end
$var wire 1 ! clk $end
$var wire 1 " evacuated $end
$var wire 1 # innerDoorCtrl $end
$var wire 1 $ rst $end
$var reg 1 % innerDoor $end
$upscope $end
$upscope $end
$enddefinitions $end
#0
$dumpvars
0%
1$
0#
0"
0!
$end
#20
1!
#40
0!
0$
#60
1!
#80
0!
1#
#100
1!
#120
0!
#140
1!
#160
0!
0#
#180
1!
#200
1%
0!
1#
1"
#220
1!
#240
0!
#260
1!
#280
0!
0#
#300
1!
#320
0%
0!
1#
#340
1!
#360
0!
0#
